<?xml version="1.0" encoding="UTF-8" ?>
<testsuite errors="0" failures="0" hostname="DESKTOP-G7DLLN7" name="model.ComponenteCurricularTest" skipped="0" tests="5" time="1.36" timestamp="2015-09-27T20:51:33">
  <properties>
    <property name="libs.jsp-compiler.javadoc" value="" />
    <property name="netbeans.autoupdate.country" value="BR" />
    <property name="nb.wait.for.caches" value="true" />
    <property name="javac.test.classpath" value="C:/Users/eduar/Documents/NetBeansProjects/KoordinateFINAL/lib/jsf20/javax.faces.jar:C:/Users/eduar/Documents/NetBeansProjects/KoordinateFINAL/lib/hibernate4-support/antlr-2.7.7.jar;C:/Users/eduar/Documents/NetBeansProjects/KoordinateFINAL/lib/hibernate4-support/c3p0-0.9.2.1.jar;C:/Users/eduar/Documents/NetBeansProjects/KoordinateFINAL/lib/hibernate4-support/hibernate-c3p0-4.3.1.Final.jar;C:/Users/eduar/Documents/NetBeansProjects/KoordinateFINAL/lib/hibernate4-support/mchange-commons-java-0.2.3.4.jar;C:/Users/eduar/Documents/NetBeansProjects/KoordinateFINAL/lib/hibernate4-support/dom4j-1.6.1.jar;C:/Users/eduar/Documents/NetBeansProjects/KoordinateFINAL/lib/hibernate4-support/ehcache-core-2.4.3.jar;C:/Users/eduar/Documents/NetBeansProjects/KoordinateFINAL/lib/hibernate4-support/hibernate-ehcache-4.3.1.Final.jar;C:/Users/eduar/Documents/NetBeansProjects/KoordinateFINAL/lib/hibernate4-support/hibernate-core-4.3.1.Final.jar;C:/Users/eduar/Documents/NetBeansProjects/KoordinateFINAL/lib/hibernate4-support/jboss-logging-3.1.3.GA.jar;C:/Users/eduar/Documents/NetBeansProjects/KoordinateFINAL/lib/hibernate4-support/hibernate-commons-annotations-4.0.4.Final.jar;C:/Users/eduar/Documents/NetBeansProjects/KoordinateFINAL/lib/hibernate4-support/hibernate-entitymanager-4.3.1.Final.jar;C:/Users/eduar/Documents/NetBeansProjects/KoordinateFINAL/lib/hibernate4-support/javassist-3.18.1-GA.jar;C:/Users/eduar/Documents/NetBeansProjects/KoordinateFINAL/lib/hibernate4-support/jboss-transaction-api_1.2_spec-1.0.0.Final.jar;C:/Users/eduar/Documents/NetBeansProjects/KoordinateFINAL/lib/hibernate4-support/slf4j-api-1.6.1.jar;C:/Users/eduar/Documents/NetBeansProjects/KoordinateFINAL/lib/hibernate4-support/slf4j-simple-1.6.1.jar:C:/Users/eduar/Documents/NetBeansProjects/KoordinateFINAL/lib/jpa2-persistence/hibernate-jpa-2.1-api-1.0.0.Final.jar:C:/Users/eduar/Documents/NetBeansProjects/KoordinateFINAL/lib/PostgreSQLDriver/postgresql-9.2-1002.jdbc4.jar:build/web/WEB-INF/classes:C:/Users/eduar/Documents/NetBeansProjects/KoordinateFINAL/lib/junit_4/junit-4.10.jar" />
    <property name="libs.jsf20.maven-pom" value="" />
    <property name="j2ee.copy.static.files.on.save" value="true" />
    <property name="libs.DataBindingME.src" value="C:\Program Files\NetBeans 8.0.2\mobility\sources\netbeans_databindingme-src.zip" />
    <property name="source.root" value="src" />
    <property name="do.display.browser" value="true" />
    <property name="libs.junit.javadoc" value="C:/Users/eduar/Documents/NetBeansProjects/KoordinateFINAL/lib/junit/junit-3.8.2-api.zip" />
    <property name="libs.spring-webmvc4.0.src" value="" />
    <property name="ant.core.lib" value="C:\Program Files\NetBeans 8.0.2\extide\ant\lib\ant.jar" />
    <property name="javadoc.windowtitle" value="" />
    <property name="libs.jsp-compilation.javadoc" value="" />
    <property name="user.dir" value="C:\Users\eduar\Documents\NetBeansProjects\KoordinateFINAL" />
    <property name="libs.javaee-api-7.0.src" value="" />
    <property name="java.vm.version" value="25.60-b23" />
    <property name="libs.DataBindingME.classpath" value="C:\Program Files\NetBeans 8.0.2\mobility\modules\ext\netbeans_databindingme.jar" />
    <property name="libs.j2me_common_ant.src" value="" />
    <property name="libs.MySQLDriver.classpath" value="C:\Program Files\NetBeans 8.0.2\ide\modules\ext\mysql-connector-java-5.1.23-bin.jar" />
    <property name="no.dependencies" value="false" />
    <property name="libs.eclipselinkmodelgen.src" value="" />
    <property name="javadoc.notree" value="false" />
    <property name="lib.dir" value="web/WEB-INF/lib" />
    <property name="netbeans.autoupdate.version" value="1.23" />
    <property name="libs.EclipseLink-GlassFish-v3.classpath" value="C:\Program Files\glassfish-4.1\glassfish\modules\org.eclipse.persistence.antlr.jar;C:\Program Files\glassfish-4.1\glassfish\modules\org.eclipse.persistence.asm.jar;C:\Program Files\glassfish-4.1\glassfish\modules\org.eclipse.persistence.core.jar;C:\Program Files\glassfish-4.1\glassfish\modules\org.eclipse.persistence.dbws.jar;C:\Program Files\glassfish-4.1\glassfish\modules\org.eclipse.persistence.jpa.jar;C:\Program Files\glassfish-4.1\glassfish\modules\org.eclipse.persistence.jpa.jpql.jar;C:\Program Files\glassfish-4.1\glassfish\modules\org.eclipse.persistence.jpa.modelgen.processor.jar;C:\Program Files\glassfish-4.1\glassfish\modules\org.eclipse.persistence.moxy.jar;C:\Program Files\glassfish-4.1\glassfish\modules\org.eclipse.persistence.oracle.jar;C:\Program Files\glassfish-4.1\glassfish\modules\javax.persistence.jar" />
    <property name="libs.javaee-web-api-6.0.classpath" value="C:\Program Files\NetBeans 8.0.2\enterprise\modules\ext\javaee-web-api-6.0.jar" />
    <property name="libs.DataBindingME-PIM.maven-pom" value="" />
    <property name="libs.Java-EE-GlassFish-v3-Prelude.javadoc" value="C:\Program Files\NetBeans 8.0.2\enterprise\docs\javaee-doc-api.jar" />
    <property name="jdk.home" value="C:\Program Files\Java\jdk1.8.0_60" />
    <property name="directory.deployment.supported" value="true" />
    <property name="libs.javac-api.src" value="" />
    <property name="javadoc.noindex" value="false" />
    <property name="libs.jpa2-persistence.classpath" value="C:/Users/eduar/Documents/NetBeansProjects/KoordinateFINAL/lib/jpa2-persistence/hibernate-jpa-2.1-api-1.0.0.Final.jar" />
    <property name="sun.os.patch.level" value="" />
    <property name="libs.Java-EE-GlassFish-v3-Prelude.src" value="" />
    <property name="java.vm.specification.name" value="Java Virtual Machine Specification" />
    <property name="nb.show.statistics.ui" value="usageStatisticsEnabled" />
    <property name="netbeans.autoupdate.variant" value="" />
    <property name="have.tests" value="true" />
    <property name="org.xml.sax.driver" value="com.sun.org.apache.xerces.internal.jaxp.SAXParserImpl$JAXPSAXParser" />
    <property name="j2ee.server.instance" value="tomcat80:home=C:\Program Files\Apache Software Foundation\Apache Tomcat 8.0.15:base=apache-tomcat-8.0.15.0_base" />
    <property name="libs.javac-api.javadoc" value="" />
    <property name="os.name" value="Windows 10" />
    <property name="libs.beans-binding.classpath" value="C:\Program Files\NetBeans 8.0.2\java\modules\ext\beansbinding-1.2.1.jar" />
    <property name="libs.javaee-endorsed-api-7.0.maven-pom" value="" />
    <property name="ap.proc.none.internal" value="" />
    <property name="libs.DataBindingME-SVG.javadoc" value="C:\Program Files\NetBeans 8.0.2\mobility\modules\docs\netbeans_databindingme_svg-api.zip" />
    <property name="libs.restapi.javadoc" value="" />
    <property name="libs.JWSAntTasks.maven-pom" value="" />
    <property name="libs.jstl.classpath" value="C:\Program Files\NetBeans 8.0.2\enterprise\modules\ext\jstl-impl.jar;C:\Program Files\NetBeans 8.0.2\enterprise\modules\ext\jstl-api.jar" />
    <property name="libs.testng.src" value="" />
    <property name="libs.spring-webmvc3.0.src" value="" />
    <property name="libs.restapi.classpath" value="C:\Program Files\NetBeans 8.0.2\enterprise\modules\ext\jaxrs-2.0\javax.ws.rs-api-2.0.jar" />
    <property name="runmain.jvmargs" value="" />
    <property name="java.vendor.url.bug" value="http://bugreport.sun.com/bugreport/" />
    <property name="libs.jaxb.maven-pom" value="" />
    <property name="os.arch" value="amd64" />
    <property name="libs.eclipselink.src" value="" />
    <property name="user.name" value="eduar" />
    <property name="j2ee.compile.on.save" value="true" />
    <property name="libs.jsf12.javadoc" value="C:\Program Files\NetBeans 8.0.2\enterprise\docs\javaee-doc-api.jar" />
    <property name="libs.Comet-GlassFish-v3.javadoc" value="" />
    <property name="libs.j2me_common_ant.maven-pom" value="" />
    <property name="libs.spring-webmvc3.0.maven-pom" value="" />
    <property name="libs.swing-layout.maven-pom" value="" />
    <property name="sun.java.command" value="org.apache.tools.ant.taskdefs.optional.junit.JUnitTestRunner model.ComponenteCurricularTest skipNonTests=false filtertrace=true haltOnError=false haltOnFailure=false showoutput=true outputtoformatters=true logfailedtests=true threadid=0 logtestlistenerevents=true formatter=org.apache.tools.ant.taskdefs.optional.junit.BriefJUnitResultFormatter formatter=org.apache.tools.ant.taskdefs.optional.junit.XMLJUnitResultFormatter,C:\Users\eduar\Documents\NetBeansProjects\KoordinateFINAL\build\test\results\TEST-model.ComponenteCurricularTest.xml crashfile=C:\Users\eduar\Documents\NetBeansProjects\KoordinateFINAL\build\junitvmwatcher826997010810812164.properties propsfile=C:\Users\eduar\Documents\NetBeansProjects\KoordinateFINAL\build\junit20932712245921424.properties" />
    <property name="build.classes.dir" value="build/web/WEB-INF/classes" />
    <property name="netbeans.accept_license_class" value="org.netbeans.license.AcceptLicense" />
    <property name="ap.supported.internal" value="true" />
    <property name="libs.javaee-endorsed-api-7.0.javadoc" value="C:\Program Files\NetBeans 8.0.2\enterprise\docs\javaee-doc-api.jar" />
    <property name="libs.jaxws21.javadoc" value="C:\Program Files\NetBeans 8.0.2\java\docs\jaxws-api-doc.zip" />
    <property name="ant.file.KoordinateFINAL" value="C:\Users\eduar\Documents\NetBeansProjects\KoordinateFINAL\build.xml" />
    <property name="libs.spring-webmvc4.0.javadoc" value="" />
    <property name="build.web.excludes" value="**/*.java,**/*.form" />
    <property name="includes" value="model/**/*Test.java" />
    <property name="browser.context" value="C:\Users\eduar\Documents\NetBeansProjects\KoordinateFINAL\test\model" />
    <property name="user.country" value="BR" />
    <property name="javadoc.encoding" value="UTF-8" />
    <property name="javac.classpath" value="C:/Users/eduar/Documents/NetBeansProjects/KoordinateFINAL/lib/jsf20/javax.faces.jar:C:/Users/eduar/Documents/NetBeansProjects/KoordinateFINAL/lib/hibernate4-support/antlr-2.7.7.jar;C:/Users/eduar/Documents/NetBeansProjects/KoordinateFINAL/lib/hibernate4-support/c3p0-0.9.2.1.jar;C:/Users/eduar/Documents/NetBeansProjects/KoordinateFINAL/lib/hibernate4-support/hibernate-c3p0-4.3.1.Final.jar;C:/Users/eduar/Documents/NetBeansProjects/KoordinateFINAL/lib/hibernate4-support/mchange-commons-java-0.2.3.4.jar;C:/Users/eduar/Documents/NetBeansProjects/KoordinateFINAL/lib/hibernate4-support/dom4j-1.6.1.jar;C:/Users/eduar/Documents/NetBeansProjects/KoordinateFINAL/lib/hibernate4-support/ehcache-core-2.4.3.jar;C:/Users/eduar/Documents/NetBeansProjects/KoordinateFINAL/lib/hibernate4-support/hibernate-ehcache-4.3.1.Final.jar;C:/Users/eduar/Documents/NetBeansProjects/KoordinateFINAL/lib/hibernate4-support/hibernate-core-4.3.1.Final.jar;C:/Users/eduar/Documents/NetBeansProjects/KoordinateFINAL/lib/hibernate4-support/jboss-logging-3.1.3.GA.jar;C:/Users/eduar/Documents/NetBeansProjects/KoordinateFINAL/lib/hibernate4-support/hibernate-commons-annotations-4.0.4.Final.jar;C:/Users/eduar/Documents/NetBeansProjects/KoordinateFINAL/lib/hibernate4-support/hibernate-entitymanager-4.3.1.Final.jar;C:/Users/eduar/Documents/NetBeansProjects/KoordinateFINAL/lib/hibernate4-support/javassist-3.18.1-GA.jar;C:/Users/eduar/Documents/NetBeansProjects/KoordinateFINAL/lib/hibernate4-support/jboss-transaction-api_1.2_spec-1.0.0.Final.jar;C:/Users/eduar/Documents/NetBeansProjects/KoordinateFINAL/lib/hibernate4-support/slf4j-api-1.6.1.jar;C:/Users/eduar/Documents/NetBeansProjects/KoordinateFINAL/lib/hibernate4-support/slf4j-simple-1.6.1.jar:C:/Users/eduar/Documents/NetBeansProjects/KoordinateFINAL/lib/jpa2-persistence/hibernate-jpa-2.1-api-1.0.0.Final.jar:C:/Users/eduar/Documents/NetBeansProjects/KoordinateFINAL/lib/PostgreSQLDriver/postgresql-9.2-1002.jdbc4.jar" />
    <property name="libs.jsp-compilation-syscp.src" value="" />
    <property name="libs.JAVADB_DRIVER_LABEL.src" value="" />
    <property name="libs.spring-framework400.classpath" value="C:\Program Files\NetBeans 8.0.2\ide\modules\org-apache-commons-logging.jar;C:\Program Files\NetBeans 8.0.2\java\modules\ext\cglib-2.2.jar;C:\Program Files\NetBeans 8.0.2\java\modules\ext\spring-4\spring-aop-4.0.1.RELEASE.jar;C:\Program Files\NetBeans 8.0.2\java\modules\ext\spring-4\spring-aspects-4.0.1.RELEASE.jar;C:\Program Files\NetBeans 8.0.2\java\modules\ext\spring-4\spring-beans-4.0.1.RELEASE.jar;C:\Program Files\NetBeans 8.0.2\java\modules\ext\spring-4\spring-build-src-4.0.1.RELEASE.jar;C:\Program Files\NetBeans 8.0.2\java\modules\ext\spring-4\spring-context-4.0.1.RELEASE.jar;C:\Program Files\NetBeans 8.0.2\java\modules\ext\spring-4\spring-context-support-4.0.1.RELEASE.jar;C:\Program Files\NetBeans 8.0.2\java\modules\ext\spring-4\spring-core-4.0.1.RELEASE.jar;C:\Program Files\NetBeans 8.0.2\java\modules\ext\spring-4\spring-expression-4.0.1.RELEASE.jar;C:\Program Files\NetBeans 8.0.2\java\modules\ext\spring-4\spring-framework-bom-4.0.1.RELEASE.jar;C:\Program Files\NetBeans 8.0.2\java\modules\ext\spring-4\spring-instrument-4.0.1.RELEASE.jar;C:\Program Files\NetBeans 8.0.2\java\modules\ext\spring-4\spring-instrument-tomcat-4.0.1.RELEASE.jar;C:\Program Files\NetBeans 8.0.2\java\modules\ext\spring-4\spring-jdbc-4.0.1.RELEASE.jar;C:\Program Files\NetBeans 8.0.2\java\modules\ext\spring-4\spring-jms-4.0.1.RELEASE.jar;C:\Program Files\NetBeans 8.0.2\java\modules\ext\spring-4\spring-messaging-4.0.1.RELEASE.jar;C:\Program Files\NetBeans 8.0.2\java\modules\ext\spring-4\spring-orm-4.0.1.RELEASE.jar;C:\Program Files\NetBeans 8.0.2\java\modules\ext\spring-4\spring-oxm-4.0.1.RELEASE.jar;C:\Program Files\NetBeans 8.0.2\java\modules\ext\spring-4\spring-test-4.0.1.RELEASE.jar;C:\Program Files\NetBeans 8.0.2\java\modules\ext\spring-4\spring-tx-4.0.1.RELEASE.jar;C:\Program Files\NetBeans 8.0.2\java\modules\ext\spring-4\spring-web-4.0.1.RELEASE.jar;C:\Program Files\NetBeans 8.0.2\java\modules\ext\spring-4\spring-webmvc-4.0.1.RELEASE.jar;C:\Program Files\NetBeans 8.0.2\java\modules\ext\spring-4\spring-webmvc-portlet-4.0.1.RELEASE.jar;C:\Program Files\NetBeans 8.0.2\java\modules\ext\spring-4\spring-websocket-4.0.1.RELEASE.jar" />
    <property name="do.debug.server" value="true" />
    <property name="debug-transport" value="dt_shmem" />
    <property name="netbeans.home" value="C:\Program Files\NetBeans 8.0.2\platform" />
    <property name="build.compiler.emacs" value="true" />
    <property name="libs.javaee-web-api-6.0.src" value="" />
    <property name="libs.jsp-compilation-syscp.classpath" value="C:\Program Files\NetBeans 8.0.2\extide\ant\lib\ant.jar;C:\Program Files\NetBeans 8.0.2\enterprise\modules\ext\servlet3.1-jsp2.3-api.jar;C:\Program Files\NetBeans 8.0.2\enterprise\modules\ext\glassfish-jspparser-4.0.jar;C:\Program Files\NetBeans 8.0.2\enterprise\modules\ext\jstl-impl.jar;C:\Program Files\NetBeans 8.0.2\enterprise\modules\ext\jsf-2_2\javax.faces.jar" />
    <property name="java.endorsed.dirs" value="C:\Program Files\Java\jdk1.8.0_60\jre\lib\endorsed" />
    <property name="libs.Comet-GlassFish-v3.maven-pom" value="" />
    <property name="libs.groovy-all.src" value="" />
    <property name="netbeans.dynamic.classpath" value="C:\Program Files\NetBeans 8.0.2\platform\core\core.jar;C:\Program Files\NetBeans 8.0.2\platform\core\org-openide-filesystems.jar;C:\Program Files\NetBeans 8.0.2\platform\core\locale\core_ja.jar;C:\Program Files\NetBeans 8.0.2\platform\core\locale\core_pt_BR.jar;C:\Program Files\NetBeans 8.0.2\platform\core\locale\core_ru.jar;C:\Program Files\NetBeans 8.0.2\platform\core\locale\core_zh_CN.jar;C:\Program Files\NetBeans 8.0.2\platform\core\locale\org-openide-filesystems_ja.jar;C:\Program Files\NetBeans 8.0.2\platform\core\locale\org-openide-filesystems_pt_BR.jar;C:\Program Files\NetBeans 8.0.2\platform\core\locale\org-openide-filesystems_ru.jar;C:\Program Files\NetBeans 8.0.2\platform\core\locale\org-openide-filesystems_zh_CN.jar;C:\Program Files\NetBeans 8.0.2\nb\core\org-netbeans-upgrader.jar;C:\Program Files\NetBeans 8.0.2\nb\core\locale\core_nb.jar;C:\Program Files\NetBeans 8.0.2\nb\core\locale\core_nb_ja.jar;C:\Program Files\NetBeans 8.0.2\nb\core\locale\core_nb_pt_BR.jar;C:\Program Files\NetBeans 8.0.2\nb\core\locale\core_nb_ru.jar;C:\Program Files\NetBeans 8.0.2\nb\core\locale\core_nb_zh_CN.jar;C:\Program Files\NetBeans 8.0.2\nb\core\locale\org-netbeans-upgrader_ja.jar;C:\Program Files\NetBeans 8.0.2\nb\core\locale\org-netbeans-upgrader_pt_BR.jar;C:\Program Files\NetBeans 8.0.2\nb\core\locale\org-netbeans-upgrader_ru.jar;C:\Program Files\NetBeans 8.0.2\nb\core\locale\org-netbeans-upgrader_zh_CN.jar" />
    <property name="java.vm.specification.version" value="1.8" />
    <property name="libs.hibernate4-support.src" value="" />
    <property name="libs.primefaces.classpath" value="C:\Program Files\NetBeans 8.0.2\enterprise\modules\ext\primefaces\primefaces-5.0.jar" />
    <property name="libs.javaee-api-6.0.classpath" value="C:\Program Files\NetBeans 8.0.2\enterprise\modules\ext\javaee-api-6.0.jar" />
    <property name="libs.groovy-all.maven-pom" value="" />
    <property name="netbeans.productversion" value="NetBeans IDE 8.0.2 (Build 201411181905)" />
    <property name="libs.jaxws21.src" value="" />
    <property name="do.war.package.with.custom.manifest" value="true" />
    <property name="netbeans.autoupdate.language" value="pt" />
    <property name="java.vendor" value="Oracle Corporation" />
    <property name="libs.javaee-api-6.0.javadoc" value="C:\Program Files\NetBeans 8.0.2\enterprise\docs\javaee-doc-api.jar" />
    <property name="javac.debug" value="true" />
    <property name="javadoc.splitindex" value="true" />
    <property name="file.separator" value="\" />
    <property name="libs.Java-EE-GlassFish-v3-Prelude.maven-pom" value="" />
    <property name="libs.junit_4.maven-pom" value="" />
    <property name="resource.dir" value="setup" />
    <property name="javac.test.processorpath" value="C:/Users/eduar/Documents/NetBeansProjects/KoordinateFINAL/lib/jsf20/javax.faces.jar:C:/Users/eduar/Documents/NetBeansProjects/KoordinateFINAL/lib/hibernate4-support/antlr-2.7.7.jar;C:/Users/eduar/Documents/NetBeansProjects/KoordinateFINAL/lib/hibernate4-support/c3p0-0.9.2.1.jar;C:/Users/eduar/Documents/NetBeansProjects/KoordinateFINAL/lib/hibernate4-support/hibernate-c3p0-4.3.1.Final.jar;C:/Users/eduar/Documents/NetBeansProjects/KoordinateFINAL/lib/hibernate4-support/mchange-commons-java-0.2.3.4.jar;C:/Users/eduar/Documents/NetBeansProjects/KoordinateFINAL/lib/hibernate4-support/dom4j-1.6.1.jar;C:/Users/eduar/Documents/NetBeansProjects/KoordinateFINAL/lib/hibernate4-support/ehcache-core-2.4.3.jar;C:/Users/eduar/Documents/NetBeansProjects/KoordinateFINAL/lib/hibernate4-support/hibernate-ehcache-4.3.1.Final.jar;C:/Users/eduar/Documents/NetBeansProjects/KoordinateFINAL/lib/hibernate4-support/hibernate-core-4.3.1.Final.jar;C:/Users/eduar/Documents/NetBeansProjects/KoordinateFINAL/lib/hibernate4-support/jboss-logging-3.1.3.GA.jar;C:/Users/eduar/Documents/NetBeansProjects/KoordinateFINAL/lib/hibernate4-support/hibernate-commons-annotations-4.0.4.Final.jar;C:/Users/eduar/Documents/NetBeansProjects/KoordinateFINAL/lib/hibernate4-support/hibernate-entitymanager-4.3.1.Final.jar;C:/Users/eduar/Documents/NetBeansProjects/KoordinateFINAL/lib/hibernate4-support/javassist-3.18.1-GA.jar;C:/Users/eduar/Documents/NetBeansProjects/KoordinateFINAL/lib/hibernate4-support/jboss-transaction-api_1.2_spec-1.0.0.Final.jar;C:/Users/eduar/Documents/NetBeansProjects/KoordinateFINAL/lib/hibernate4-support/slf4j-api-1.6.1.jar;C:/Users/eduar/Documents/NetBeansProjects/KoordinateFINAL/lib/hibernate4-support/slf4j-simple-1.6.1.jar:C:/Users/eduar/Documents/NetBeansProjects/KoordinateFINAL/lib/jpa2-persistence/hibernate-jpa-2.1-api-1.0.0.Final.jar:C:/Users/eduar/Documents/NetBeansProjects/KoordinateFINAL/lib/PostgreSQLDriver/postgresql-9.2-1002.jdbc4.jar:build/web/WEB-INF/classes:C:/Users/eduar/Documents/NetBeansProjects/KoordinateFINAL/lib/junit_4/junit-4.10.jar" />
    <property name="netbeans.buildnumber" value="201411181905" />
    <property name="libs.JWSAntTasks.javadoc" value="" />
    <property name="build.generated.sources.dir" value="build/generated-sources" />
    <property name="user.variant" value="" />
    <property name="libs.eclipselinkmodelgen.classpath" value="C:\Program Files\NetBeans 8.0.2\java\modules\ext\eclipselink\org.eclipse.persistence.jpa.modelgen_2.5.2.v20140319-9ad6abd.jar" />
    <property name="libs.javaee-endorsed-api-7.0.src" value="" />
    <property name="sun.java.launcher" value="SUN_STANDARD" />
    <property name="libs.junit.classpath" value="C:/Users/eduar/Documents/NetBeansProjects/KoordinateFINAL/lib/junit/junit-3.8.2.jar" />
    <property name="libs.hibernate4-persistencemodelgen.javadoc" value="" />
    <property name="libs.jaxb.javadoc" value="C:\Program Files\NetBeans 8.0.2\ide\docs\jaxb-api-doc.zip" />
    <property name="libs.struts.classpath" value="C:\Program Files\NetBeans 8.0.2\enterprise\modules\ext\struts\antlr-2.7.2.jar;C:\Program Files\NetBeans 8.0.2\enterprise\modules\ext\struts\bsf-2.3.0.jar;C:\Program Files\NetBeans 8.0.2\enterprise\modules\ext\struts\commons-beanutils-1.8.0.jar;C:\Program Files\NetBeans 8.0.2\enterprise\modules\ext\struts\commons-chain-1.2.jar;C:\Program Files\NetBeans 8.0.2\enterprise\modules\ext\struts\commons-digester-1.8.jar;C:\Program Files\NetBeans 8.0.2\enterprise\modules\ext\struts\commons-fileupload-1.1.1.jar;C:\Program Files\NetBeans 8.0.2\enterprise\modules\ext\struts\commons-io-1.1.jar;C:\Program Files\NetBeans 8.0.2\enterprise\modules\ext\struts\commons-logging-1.0.4.jar;C:\Program Files\NetBeans 8.0.2\enterprise\modules\ext\struts\commons-validator-1.3.1.jar;C:\Program Files\NetBeans 8.0.2\enterprise\modules\ext\struts\jstl-1.0.2.jar;C:\Program Files\NetBeans 8.0.2\enterprise\modules\ext\struts\oro-2.0.8.jar;C:\Program Files\NetBeans 8.0.2\enterprise\modules\ext\struts\standard-1.0.6.jar;C:\Program Files\NetBeans 8.0.2\enterprise\modules\ext\struts\struts-core-1.3.10.jar;C:\Program Files\NetBeans 8.0.2\enterprise\modules\ext\struts\struts-el-1.3.10.jar;C:\Program Files\NetBeans 8.0.2\enterprise\modules\ext\struts\struts-extras-1.3.10.jar;C:\Program Files\NetBeans 8.0.2\enterprise\modules\ext\struts\struts-faces-1.3.10.jar;C:\Program Files\NetBeans 8.0.2\enterprise\modules\ext\struts\struts-mailreader-dao-1.3.10.jar;C:\Program Files\NetBeans 8.0.2\enterprise\modules\ext\struts\struts-scripting-1.3.10.jar;C:\Program Files\NetBeans 8.0.2\enterprise\modules\ext\struts\struts-taglib-1.3.10.jar;C:\Program Files\NetBeans 8.0.2\enterprise\modules\ext\struts\struts-tiles-1.3.10.jar" />
    <property name="application.args.param" value="" />
    <property name="ant.file.type.KoordinateFINAL" value="file" />
    <property name="ant.home" value="C:\Program Files\NetBeans 8.0.2\extide\ant" />
    <property name="libs.junit_4.src" value="C:/Users/eduar/Documents/NetBeansProjects/KoordinateFINAL/lib/junit_4/junit-4.10-sources.jar" />
    <property name="libs.testng.classpath" value="C:\Program Files\NetBeans 8.0.2\platform\modules\ext\testng-6.8.1-dist.jar" />
    <property name="conf.dir" value="src/conf" />
    <property name="webinf.dir" value="web/WEB-INF" />
    <property name="libs.absolutelayout.maven-pom" value="" />
    <property name="ant.java.version" value="1.8" />
    <property name="java.library.path" value="C:\Program Files\Java\jdk1.8.0_60\jre\bin;C:\WINDOWS\Sun\Java\bin;C:\WINDOWS\system32;C:\WINDOWS;C:\ProgramData\Oracle\Java\javapath;C:\WINDOWS\system32;C:\WINDOWS;C:\WINDOWS\System32\Wbem;C:\WINDOWS\System32\WindowsPowerShell\v1.0\;C:\Program Files (x86)\NVIDIA Corporation\PhysX\Common;C:\NVPACK\android-sdk-windows\tools;C:\NVPACK\android-sdk-windows\platform-tools;C:\NVPACK\android-sdk-windows\build-tools;C:\NVPACK\android-sdk-windows\tools;C:\NVPACK\jdk1.6.0_45\bin;C:\NVPACK\apache-ant-1.8.2\bin;." />
    <property name="javadoc.author" value="false" />
    <property name="libs.metro.maven-pom" value="" />
    <property name="libs.EclipseLink-GlassFish-v3.src" value="" />
    <property name="java.util.logging.config.class" value="org.netbeans.core.startup.TopLogging" />
    <property name="libs.spring-framework400.src" value="" />
    <property name="libs.PostgreSQLDriver.src" value="" />
    <property name="sun.arch.data.model" value="64" />
    <property name="basedir" value="C:\Users\eduar\Documents\NetBeansProjects\KoordinateFINAL" />
    <property name="libs.jpa20-persistence.maven-pom" value="" />
    <property name="jar.compress" value="false" />
    <property name="libs.javaee-web-api-7.0.classpath" value="C:\Program Files\NetBeans 8.0.2\enterprise\modules\ext\javaee-web-api-7.0.jar" />
    <property name="path.separator" value=";" />
    <property name="dist.war" value="dist/KoordinateFINAL.war" />
    <property name="libs.javaee-web-api-6.0.javadoc" value="C:\Program Files\NetBeans 8.0.2\enterprise\docs\javaee-doc-api.jar" />
    <property name="ant.junit.enabletestlistenerevents" value="true" />
    <property name="libs.junit_4.prop-maven-dependencies" value="junit:junit:4.10:jar" />
    <property name="sun.io.unicode.encoding" value="UnicodeLittle" />
    <property name="libs.jaxws21.classpath" value="C:\Program Files\NetBeans 8.0.2\ide\modules\ext\jaxb\jaxb-impl.jar;C:\Program Files\NetBeans 8.0.2\ide\modules\ext\jaxb\jaxb-xjc.jar;C:\Program Files\NetBeans 8.0.2\java\modules\ext\jaxws22\FastInfoset.jar;C:\Program Files\NetBeans 8.0.2\java\modules\ext\jaxws22\gmbal-api-only.jar;C:\Program Files\NetBeans 8.0.2\java\modules\ext\jaxws22\ha-api.jar;C:\Program Files\NetBeans 8.0.2\java\modules\ext\jaxws22\javax.mail_1.4.jar;C:\Program Files\NetBeans 8.0.2\java\modules\ext\jaxws22\jaxws-rt.jar;C:\Program Files\NetBeans 8.0.2\java\modules\ext\jaxws22\jaxws-tools.jar;C:\Program Files\NetBeans 8.0.2\java\modules\ext\jaxws22\management-api.jar;C:\Program Files\NetBeans 8.0.2\java\modules\ext\jaxws22\mimepull.jar;C:\Program Files\NetBeans 8.0.2\java\modules\ext\jaxws22\policy.jar;C:\Program Files\NetBeans 8.0.2\java\modules\ext\jaxws22\saaj-impl.jar;C:\Program Files\NetBeans 8.0.2\java\modules\ext\jaxws22\stax-ex.jar;C:\Program Files\NetBeans 8.0.2\java\modules\ext\jaxws22\stax2-api.jar;C:\Program Files\NetBeans 8.0.2\java\modules\ext\jaxws22\streambuffer.jar;C:\Program Files\NetBeans 8.0.2\java\modules\ext\jaxws22\woodstox-core-asl.jar;C:\Program Files\NetBeans 8.0.2\java\modules\ext\jaxws22\api\jaxws-api.jar;C:\Program Files\NetBeans 8.0.2\java\modules\ext\jaxws22\api\jsr181-api.jar;C:\Program Files\NetBeans 8.0.2\java\modules\ext\jaxws22\api\javax.annotation.jar;C:\Program Files\NetBeans 8.0.2\java\modules\ext\jaxws22\api\saaj-api.jar;C:\Program Files\NetBeans 8.0.2\ide\modules\ext\jaxb\activation.jar;C:\Program Files\NetBeans 8.0.2\ide\modules\ext\jaxb\api\jaxb-api.jar;C:\Program Files\NetBeans 8.0.2\ide\modules\ext\jaxb\api\jsr173_1.0_api.jar" />
    <property name="libs.struts.src" value="" />
    <property name="apple.awt.graphics.UseQuartz" value="true" />
    <property name="user.language" value="pt" />
    <property name="j2ee.platform.classpath" value="C:/Program Files/Apache Software Foundation/Apache Tomcat 8.0.15/lib/annotations-api.jar:C:/Program Files/Apache Software Foundation/Apache Tomcat 8.0.15/lib/catalina-ant.jar:C:/Program Files/Apache Software Foundation/Apache Tomcat 8.0.15/lib/catalina-ha.jar:C:/Program Files/Apache Software Foundation/Apache Tomcat 8.0.15/lib/catalina-storeconfig.jar:C:/Program Files/Apache Software Foundation/Apache Tomcat 8.0.15/lib/catalina-tribes.jar:C:/Program Files/Apache Software Foundation/Apache Tomcat 8.0.15/lib/catalina.jar:C:/Program Files/Apache Software Foundation/Apache Tomcat 8.0.15/lib/ecj-4.4.jar:C:/Program Files/Apache Software Foundation/Apache Tomcat 8.0.15/lib/el-api.jar:C:/Program Files/Apache Software Foundation/Apache Tomcat 8.0.15/lib/jasper-el.jar:C:/Program Files/Apache Software Foundation/Apache Tomcat 8.0.15/lib/jasper.jar:C:/Program Files/Apache Software Foundation/Apache Tomcat 8.0.15/lib/jsp-api.jar:C:/Program Files/Apache Software Foundation/Apache Tomcat 8.0.15/lib/servlet-api.jar:C:/Program Files/Apache Software Foundation/Apache Tomcat 8.0.15/lib/tomcat-api.jar:C:/Program Files/Apache Software Foundation/Apache Tomcat 8.0.15/lib/tomcat-coyote.jar:C:/Program Files/Apache Software Foundation/Apache Tomcat 8.0.15/lib/tomcat-dbcp.jar:C:/Program Files/Apache Software Foundation/Apache Tomcat 8.0.15/lib/tomcat-i18n-es.jar:C:/Program Files/Apache Software Foundation/Apache Tomcat 8.0.15/lib/tomcat-i18n-fr.jar:C:/Program Files/Apache Software Foundation/Apache Tomcat 8.0.15/lib/tomcat-i18n-ja.jar:C:/Program Files/Apache Software Foundation/Apache Tomcat 8.0.15/lib/tomcat-jdbc.jar:C:/Program Files/Apache Software Foundation/Apache Tomcat 8.0.15/lib/tomcat-jni.jar:C:/Program Files/Apache Software Foundation/Apache Tomcat 8.0.15/lib/tomcat-spdy.jar:C:/Program Files/Apache Software Foundation/Apache Tomcat 8.0.15/lib/tomcat-util-scan.jar:C:/Program Files/Apache Software Foundation/Apache Tomcat 8.0.15/lib/tomcat-util.jar:C:/Program Files/Apache Software Foundation/Apache Tomcat 8.0.15/lib/tomcat-websocket.jar:C:/Program Files/Apache Software Foundation/Apache Tomcat 8.0.15/lib/websocket-api.jar" />
    <property name="testng.mode" value="testng" />
    <property name="libs.JAXB-ENDORSED.maven-pom" value="" />
    <property name="libs.eclipselink.maven-pom" value="" />
    <property name="build.meta.inf.dir" value="build/web/META-INF" />
    <property name="persistence.xml.dir" value="src/conf" />
    <property name="test.binaryincludes" value="&lt;nothing&gt;" />
    <property name="libs.primefaces.javadoc" value="" />
    <property name="libs.spring-framework300.maven-pom" value="" />
    <property name="run.test.classpath" value="C:/Users/eduar/Documents/NetBeansProjects/KoordinateFINAL/lib/jsf20/javax.faces.jar:C:/Users/eduar/Documents/NetBeansProjects/KoordinateFINAL/lib/hibernate4-support/antlr-2.7.7.jar;C:/Users/eduar/Documents/NetBeansProjects/KoordinateFINAL/lib/hibernate4-support/c3p0-0.9.2.1.jar;C:/Users/eduar/Documents/NetBeansProjects/KoordinateFINAL/lib/hibernate4-support/hibernate-c3p0-4.3.1.Final.jar;C:/Users/eduar/Documents/NetBeansProjects/KoordinateFINAL/lib/hibernate4-support/mchange-commons-java-0.2.3.4.jar;C:/Users/eduar/Documents/NetBeansProjects/KoordinateFINAL/lib/hibernate4-support/dom4j-1.6.1.jar;C:/Users/eduar/Documents/NetBeansProjects/KoordinateFINAL/lib/hibernate4-support/ehcache-core-2.4.3.jar;C:/Users/eduar/Documents/NetBeansProjects/KoordinateFINAL/lib/hibernate4-support/hibernate-ehcache-4.3.1.Final.jar;C:/Users/eduar/Documents/NetBeansProjects/KoordinateFINAL/lib/hibernate4-support/hibernate-core-4.3.1.Final.jar;C:/Users/eduar/Documents/NetBeansProjects/KoordinateFINAL/lib/hibernate4-support/jboss-logging-3.1.3.GA.jar;C:/Users/eduar/Documents/NetBeansProjects/KoordinateFINAL/lib/hibernate4-support/hibernate-commons-annotations-4.0.4.Final.jar;C:/Users/eduar/Documents/NetBeansProjects/KoordinateFINAL/lib/hibernate4-support/hibernate-entitymanager-4.3.1.Final.jar;C:/Users/eduar/Documents/NetBeansProjects/KoordinateFINAL/lib/hibernate4-support/javassist-3.18.1-GA.jar;C:/Users/eduar/Documents/NetBeansProjects/KoordinateFINAL/lib/hibernate4-support/jboss-transaction-api_1.2_spec-1.0.0.Final.jar;C:/Users/eduar/Documents/NetBeansProjects/KoordinateFINAL/lib/hibernate4-support/slf4j-api-1.6.1.jar;C:/Users/eduar/Documents/NetBeansProjects/KoordinateFINAL/lib/hibernate4-support/slf4j-simple-1.6.1.jar:C:/Users/eduar/Documents/NetBeansProjects/KoordinateFINAL/lib/jpa2-persistence/hibernate-jpa-2.1-api-1.0.0.Final.jar:C:/Users/eduar/Documents/NetBeansProjects/KoordinateFINAL/lib/PostgreSQLDriver/postgresql-9.2-1002.jdbc4.jar:build/web/WEB-INF/classes:C:/Users/eduar/Documents/NetBeansProjects/KoordinateFINAL/lib/junit_4/junit-4.10.jar:build/test/classes" />
    <property name="ant.project.invoked-targets" value="test" />
    <property name="test.binaryexcludes" value="" />
    <property name="libs.swing-layout.javadoc" value="C:\Program Files\NetBeans 8.0.2\platform\docs\swing-layout-1.0.4-doc.zip" />
    <property name="sun.java2d.dpiaware" value="true" />
    <property name="libs.hibernate4-support.prop-maven-dependencies" value="&#xa;                org.hibernate:hibernate-entitymanager:4.3.1.Final:jar&#xa;            " />
    <property name="libs.hibernate4-persistence.maven-pom" value="" />
    <property name="ant.file.KoordinateFINAL-impl" value="C:\Users\eduar\Documents\NetBeansProjects\KoordinateFINAL\nbproject\build-impl.xml" />
    <property name="jspc.schemas" value="/resources/schemas/" />
    <property name="libs.DataBindingME-SVG.classpath" value="C:\Program Files\NetBeans 8.0.2\mobility\modules\ext\netbeans_databindingme_svg.jar" />
    <property name="libs.PostgreSQLDriver.maven-pom" value="" />
    <property name="libs.hibernate4-support.displayName" value="Hibernate 4.3.x" />
    <property name="java.class.version" value="52.0" />
    <property name="libs.JAVADB_DRIVER_LABEL.classpath" value="C:\Program Files\Java\jdk1.8.0_60\db\lib\derby.jar;C:\Program Files\Java\jdk1.8.0_60\db\lib\derbyclient.jar;C:\Program Files\Java\jdk1.8.0_60\db\lib\derbynet.jar" />
    <property name="libs.hibernate4-persistencemodelgen.maven-pom" value="" />
    <property name="libs.javaee-endorsed-api-6.0.src" value="" />
    <property name="libs.eclipselink.javadoc" value="C:\Program Files\NetBeans 8.0.2\java\modules\ext\docs\javax.persistence-2.1.0-doc.zip" />
    <property name="libs.jsp-compilation.maven-pom" value="" />
    <property name="user.properties.file" value="C:\Users\eduar\AppData\Roaming\NetBeans\8.0.2\build.properties" />
    <property name="build.web.dir" value="build/web" />
    <property name="libs.javac-api.maven-pom" value="" />
    <property name="file.encoding.pkg" value="sun.io" />
    <property name="sun.cpu.endian" value="little" />
    <property name="libs.JAXB-ENDORSED.javadoc" value="" />
    <property name="libs.JWSAntTasks.classpath" value="C:\Program Files\NetBeans 8.0.2\java\ant\extra\org-netbeans-modules-javawebstart-anttasks.jar" />
    <property name="libs.spring-webmvc4.0.maven-pom" value="" />
    <property name="libs.spring-framework300.src" value="" />
    <property name="auxiliary.org-netbeans-modules-projectapi.jsf_2e_language" value="Facelets" />
    <property name="libs.jstl.src" value="" />
    <property name="libs.jsf20.prop-maven-dependencies" value="org.glassfish:javax.faces:2.2.7:jar" />
    <property name="empty.dir" value="C:\Users\eduar\Documents\NetBeansProjects\KoordinateFINAL\build\empty" />
    <property name="display.browser" value="true" />
    <property name="version-output" value="java version &quot;1.8" />
    <property name="test.binarytestincludes" value="" />
    <property name="libs.hibernate4-persistencemodelgen.src" value="" />
    <property name="javadoc.preview" value="true" />
    <property name="libs.jpa20-persistence.javadoc" value="C:\Program Files\NetBeans 8.0.2\java\modules\ext\docs\javax.persistence-2.1.0-doc.zip" />
    <property name="java.home" value="C:\Program Files\Java\jdk1.8.0_60\jre" />
    <property name="libs.jsp-compilation.src" value="" />
    <property name="debug.test.classpath" value="C:/Users/eduar/Documents/NetBeansProjects/KoordinateFINAL/lib/jsf20/javax.faces.jar:C:/Users/eduar/Documents/NetBeansProjects/KoordinateFINAL/lib/hibernate4-support/antlr-2.7.7.jar;C:/Users/eduar/Documents/NetBeansProjects/KoordinateFINAL/lib/hibernate4-support/c3p0-0.9.2.1.jar;C:/Users/eduar/Documents/NetBeansProjects/KoordinateFINAL/lib/hibernate4-support/hibernate-c3p0-4.3.1.Final.jar;C:/Users/eduar/Documents/NetBeansProjects/KoordinateFINAL/lib/hibernate4-support/mchange-commons-java-0.2.3.4.jar;C:/Users/eduar/Documents/NetBeansProjects/KoordinateFINAL/lib/hibernate4-support/dom4j-1.6.1.jar;C:/Users/eduar/Documents/NetBeansProjects/KoordinateFINAL/lib/hibernate4-support/ehcache-core-2.4.3.jar;C:/Users/eduar/Documents/NetBeansProjects/KoordinateFINAL/lib/hibernate4-support/hibernate-ehcache-4.3.1.Final.jar;C:/Users/eduar/Documents/NetBeansProjects/KoordinateFINAL/lib/hibernate4-support/hibernate-core-4.3.1.Final.jar;C:/Users/eduar/Documents/NetBeansProjects/KoordinateFINAL/lib/hibernate4-support/jboss-logging-3.1.3.GA.jar;C:/Users/eduar/Documents/NetBeansProjects/KoordinateFINAL/lib/hibernate4-support/hibernate-commons-annotations-4.0.4.Final.jar;C:/Users/eduar/Documents/NetBeansProjects/KoordinateFINAL/lib/hibernate4-support/hibernate-entitymanager-4.3.1.Final.jar;C:/Users/eduar/Documents/NetBeansProjects/KoordinateFINAL/lib/hibernate4-support/javassist-3.18.1-GA.jar;C:/Users/eduar/Documents/NetBeansProjects/KoordinateFINAL/lib/hibernate4-support/jboss-transaction-api_1.2_spec-1.0.0.Final.jar;C:/Users/eduar/Documents/NetBeansProjects/KoordinateFINAL/lib/hibernate4-support/slf4j-api-1.6.1.jar;C:/Users/eduar/Documents/NetBeansProjects/KoordinateFINAL/lib/hibernate4-support/slf4j-simple-1.6.1.jar:C:/Users/eduar/Documents/NetBeansProjects/KoordinateFINAL/lib/jpa2-persistence/hibernate-jpa-2.1-api-1.0.0.Final.jar:C:/Users/eduar/Documents/NetBeansProjects/KoordinateFINAL/lib/PostgreSQLDriver/postgresql-9.2-1002.jdbc4.jar:build/web/WEB-INF/classes:C:/Users/eduar/Documents/NetBeansProjects/KoordinateFINAL/lib/junit_4/junit-4.10.jar:build/test/classes" />
    <property name="libs.javaee-endorsed-api-6.0.classpath" value="C:/Users/eduar/Documents/NetBeansProjects/KoordinateFINAL/lib/javaee-endorsed-api-6.0/javax.annotation.jar;C:/Users/eduar/Documents/NetBeansProjects/KoordinateFINAL/lib/javaee-endorsed-api-6.0/jaxb-api-osgi.jar;C:/Users/eduar/Documents/NetBeansProjects/KoordinateFINAL/lib/javaee-endorsed-api-6.0/webservices-api-osgi.jar" />
    <property name="libs.javaee-api-6.0.src" value="" />
    <property name="netbeans.importclass" value="org.netbeans.upgrade.AutoUpgrade" />
    <property name="ant.project.default-target" value="default" />
    <property name="annotation.processing.run.all.processors" value="true" />
    <property name="libs.DataBindingME.maven-pom" value="" />
    <property name="libs.PostgreSQLDriver.javadoc" value="" />
    <property name="libs.restlib.classpath" value="C:\Program Files\NetBeans 8.0.2\enterprise\modules\ext\jersey2\ext\asm-all-repackaged-2.2.0-b21.jar;C:\Program Files\NetBeans 8.0.2\enterprise\modules\ext\jersey2\ext\cglib-2.2.0-b21.jar;C:\Program Files\NetBeans 8.0.2\enterprise\modules\ext\jersey2\ext\guava-14.0.1.jar;C:\Program Files\NetBeans 8.0.2\enterprise\modules\ext\jersey2\ext\hk2-api-2.2.0-b21.jar;C:\Program Files\NetBeans 8.0.2\enterprise\modules\ext\jersey2\ext\hk2-locator-2.2.0-b21.jar;C:\Program Files\NetBeans 8.0.2\enterprise\modules\ext\jersey2\ext\hk2-utils-2.2.0-b21.jar;C:\Program Files\NetBeans 8.0.2\enterprise\modules\ext\jersey2\ext\javax.annotation-api-1.2.jar;C:\Program Files\NetBeans 8.0.2\enterprise\modules\ext\jersey2\ext\javax.inject-2.2.0-b21.jar;C:\Program Files\NetBeans 8.0.2\enterprise\modules\ext\jersey2\ext\javax.servlet-api-3.0.1.jar;C:\Program Files\NetBeans 8.0.2\enterprise\modules\ext\jersey2\ext\jaxb-api-2.2.7.jar;C:\Program Files\NetBeans 8.0.2\enterprise\modules\ext\jersey2\ext\jersey-entity-filtering-2.5.1.jar;C:\Program Files\NetBeans 8.0.2\enterprise\modules\ext\jersey2\ext\jersey-media-moxy-2.5.1.jar;C:\Program Files\NetBeans 8.0.2\enterprise\modules\ext\jersey2\ext\org.osgi.core-4.2.0.jar;C:\Program Files\NetBeans 8.0.2\enterprise\modules\ext\jersey2\ext\osgi-resource-locator-1.0.1.jar;C:\Program Files\NetBeans 8.0.2\enterprise\modules\ext\jersey2\ext\persistence-api-1.0.jar;C:\Program Files\NetBeans 8.0.2\enterprise\modules\ext\jersey2\ext\validation-api-1.1.0.Final.jar;C:\Program Files\NetBeans 8.0.2\enterprise\modules\ext\jersey2\jersey-client.jar;C:\Program Files\NetBeans 8.0.2\enterprise\modules\ext\jersey2\jersey-common.jar;C:\Program Files\NetBeans 8.0.2\enterprise\modules\ext\jersey2\jersey-container-servlet.jar;C:\Program Files\NetBeans 8.0.2\enterprise\modules\ext\jersey2\jersey-container-servlet-core.jar;C:\Program Files\NetBeans 8.0.2\enterprise\modules\ext\jersey2\jersey-server.jar;C:\Program Files\NetBeans 8.0.2\java\modules\ext\eclipselink\eclipselink.jar" />
    <property name="libs.MySQLDriver.maven-pom" value="" />
    <property name="libraries.dir.nativedirsep" value="C:\Users\eduar\Documents\NetBeansProjects\KoordinateFINAL\lib" />
    <property name="libs.hibernate4-persistence.javadoc" value="C:\Program Files\NetBeans 8.0.2\java\modules\ext\docs\javax.persistence-2.1.0-doc.zip" />
    <property name="libs.junit_4.javadoc" value="C:/Users/eduar/Documents/NetBeansProjects/KoordinateFINAL/lib/junit_4/junit-4.10-javadoc.jar" />
    <property name="libs.EclipseLink-GlassFish-v3.maven-pom" value="" />
    <property name="libs.javaee-web-api-6.0.maven-pom" value="" />
    <property name="j2ee.deploy.on.save" value="true" />
    <property name="jna.boot.library.name" value="jnidispatch-410" />
    <property name="libs.javaee-endorsed-api-6.0.javadoc" value="C:/Users/eduar/Documents/NetBeansProjects/KoordinateFINAL/lib/javaee-endorsed-api-6.0/javaee-doc-api.jar" />
    <property name="libs.javaee-api-7.0.classpath" value="C:\Program Files\NetBeans 8.0.2\enterprise\modules\ext\javaee-api-7.0.jar" />
    <property name="sun.awt.datatransfer.timeout" value="1000" />
    <property name="libs.spring-webmvc3.0.javadoc" value="" />
    <property name="libs.jpa2-persistence.maven-pom" value="" />
    <property name="annotation.processing.enabled.in.editor" value="true" />
    <property name="libs.hibernate4-support.classpath" value="C:/Users/eduar/Documents/NetBeansProjects/KoordinateFINAL/lib/hibernate4-support/antlr-2.7.7.jar;C:/Users/eduar/Documents/NetBeansProjects/KoordinateFINAL/lib/hibernate4-support/c3p0-0.9.2.1.jar;C:/Users/eduar/Documents/NetBeansProjects/KoordinateFINAL/lib/hibernate4-support/hibernate-c3p0-4.3.1.Final.jar;C:/Users/eduar/Documents/NetBeansProjects/KoordinateFINAL/lib/hibernate4-support/mchange-commons-java-0.2.3.4.jar;C:/Users/eduar/Documents/NetBeansProjects/KoordinateFINAL/lib/hibernate4-support/dom4j-1.6.1.jar;C:/Users/eduar/Documents/NetBeansProjects/KoordinateFINAL/lib/hibernate4-support/ehcache-core-2.4.3.jar;C:/Users/eduar/Documents/NetBeansProjects/KoordinateFINAL/lib/hibernate4-support/hibernate-ehcache-4.3.1.Final.jar;C:/Users/eduar/Documents/NetBeansProjects/KoordinateFINAL/lib/hibernate4-support/hibernate-core-4.3.1.Final.jar;C:/Users/eduar/Documents/NetBeansProjects/KoordinateFINAL/lib/hibernate4-support/jboss-logging-3.1.3.GA.jar;C:/Users/eduar/Documents/NetBeansProjects/KoordinateFINAL/lib/hibernate4-support/hibernate-commons-annotations-4.0.4.Final.jar;C:/Users/eduar/Documents/NetBeansProjects/KoordinateFINAL/lib/hibernate4-support/hibernate-entitymanager-4.3.1.Final.jar;C:/Users/eduar/Documents/NetBeansProjects/KoordinateFINAL/lib/hibernate4-support/javassist-3.18.1-GA.jar;C:/Users/eduar/Documents/NetBeansProjects/KoordinateFINAL/lib/hibernate4-support/jboss-transaction-api_1.2_spec-1.0.0.Final.jar;C:/Users/eduar/Documents/NetBeansProjects/KoordinateFINAL/lib/hibernate4-support/slf4j-api-1.6.1.jar;C:/Users/eduar/Documents/NetBeansProjects/KoordinateFINAL/lib/hibernate4-support/slf4j-simple-1.6.1.jar" />
    <property name="nb.native.filechooser" value="false" />
    <property name="libs.restapi.src" value="" />
    <property name="sun.management.compiler" value="HotSpot 64-Bit Tiered Compilers" />
    <property name="libs.j2me_common_ant.javadoc" value="" />
    <property name="javac.deprecation" value="false" />
    <property name="javadoc.use" value="true" />
    <property name="client.urlPart" value="" />
    <property name="sun.java2d.noddraw" value="true" />
    <property name="libs.jsp-compiler.classpath" value="C:\Program Files\NetBeans 8.0.2\enterprise\ant\extra\jspcompile.jar" />
    <property name="dist.ear.war" value="dist/KoordinateFINAL.war" />
    <property name="javac.processorpath" value="C:/Users/eduar/Documents/NetBeansProjects/KoordinateFINAL/lib/jsf20/javax.faces.jar:C:/Users/eduar/Documents/NetBeansProjects/KoordinateFINAL/lib/hibernate4-support/antlr-2.7.7.jar;C:/Users/eduar/Documents/NetBeansProjects/KoordinateFINAL/lib/hibernate4-support/c3p0-0.9.2.1.jar;C:/Users/eduar/Documents/NetBeansProjects/KoordinateFINAL/lib/hibernate4-support/hibernate-c3p0-4.3.1.Final.jar;C:/Users/eduar/Documents/NetBeansProjects/KoordinateFINAL/lib/hibernate4-support/mchange-commons-java-0.2.3.4.jar;C:/Users/eduar/Documents/NetBeansProjects/KoordinateFINAL/lib/hibernate4-support/dom4j-1.6.1.jar;C:/Users/eduar/Documents/NetBeansProjects/KoordinateFINAL/lib/hibernate4-support/ehcache-core-2.4.3.jar;C:/Users/eduar/Documents/NetBeansProjects/KoordinateFINAL/lib/hibernate4-support/hibernate-ehcache-4.3.1.Final.jar;C:/Users/eduar/Documents/NetBeansProjects/KoordinateFINAL/lib/hibernate4-support/hibernate-core-4.3.1.Final.jar;C:/Users/eduar/Documents/NetBeansProjects/KoordinateFINAL/lib/hibernate4-support/jboss-logging-3.1.3.GA.jar;C:/Users/eduar/Documents/NetBeansProjects/KoordinateFINAL/lib/hibernate4-support/hibernate-commons-annotations-4.0.4.Final.jar;C:/Users/eduar/Documents/NetBeansProjects/KoordinateFINAL/lib/hibernate4-support/hibernate-entitymanager-4.3.1.Final.jar;C:/Users/eduar/Documents/NetBeansProjects/KoordinateFINAL/lib/hibernate4-support/javassist-3.18.1-GA.jar;C:/Users/eduar/Documents/NetBeansProjects/KoordinateFINAL/lib/hibernate4-support/jboss-transaction-api_1.2_spec-1.0.0.Final.jar;C:/Users/eduar/Documents/NetBeansProjects/KoordinateFINAL/lib/hibernate4-support/slf4j-api-1.6.1.jar;C:/Users/eduar/Documents/NetBeansProjects/KoordinateFINAL/lib/hibernate4-support/slf4j-simple-1.6.1.jar:C:/Users/eduar/Documents/NetBeansProjects/KoordinateFINAL/lib/jpa2-persistence/hibernate-jpa-2.1-api-1.0.0.Final.jar:C:/Users/eduar/Documents/NetBeansProjects/KoordinateFINAL/lib/PostgreSQLDriver/postgresql-9.2-1002.jdbc4.jar" />
    <property name="javac.compilerargs" value="" />
    <property name="ant.file" value="C:\Users\eduar\Documents\NetBeansProjects\KoordinateFINAL\build.xml" />
    <property name="libs.beans-binding.maven-pom" value="" />
    <property name="libs.hibernate4-support.javadoc" value="C:/Users/eduar/Documents/NetBeansProjects/KoordinateFINAL/lib/hibernate4-support/javax.persistence-2.1.0-doc.zip" />
    <property name="libs.jsf12.classpath" value="C:\Program Files\NetBeans 8.0.2\enterprise\modules\ext\jsf-1_2\commons-beanutils.jar;C:\Program Files\NetBeans 8.0.2\enterprise\modules\ext\jsf-1_2\commons-collections.jar;C:\Program Files\NetBeans 8.0.2\enterprise\modules\ext\jsf-1_2\commons-digester.jar;C:\Program Files\NetBeans 8.0.2\enterprise\modules\ext\jsf-1_2\commons-logging.jar;C:\Program Files\NetBeans 8.0.2\enterprise\modules\ext\jsf-1_2\jsf-api.jar;C:\Program Files\NetBeans 8.0.2\enterprise\modules\ext\jsf-1_2\jsf-impl.jar" />
    <property name="libs.Java-EE-GlassFish-v3-Prelude.classpath" value="C:\Program Files\glassfish-4.1\glassfish\modules\endorsed\javax.annotation-api.jar;C:\Program Files\glassfish-4.1\glassfish\modules\endorsed\jaxb-api.jar;C:\Program Files\glassfish-4.1\glassfish\modules\endorsed\webservices-api-osgi.jar;C:\Program Files\glassfish-4.1\glassfish\modules\bean-validator.jar;C:\Program Files\glassfish-4.1\glassfish\modules\javax.batch-api.jar;C:\Program Files\glassfish-4.1\glassfish\modules\javax.ejb-api.jar;C:\Program Files\glassfish-4.1\glassfish\modules\javax.el.jar;C:\Program Files\glassfish-4.1\glassfish\modules\javax.enterprise.concurrent-api.jar;C:\Program Files\glassfish-4.1\glassfish\modules\javax.enterprise.concurrent.jar;C:\Program Files\glassfish-4.1\glassfish\modules\javax.enterprise.deploy-api.jar;C:\Program Files\glassfish-4.1\glassfish\modules\javax.faces.jar;C:\Program Files\glassfish-4.1\glassfish\modules\javax.inject.jar;C:\Program Files\glassfish-4.1\glassfish\modules\javax.interceptor-api.jar;C:\Program Files\glassfish-4.1\glassfish\modules\javax.jms-api.jar;C:\Program Files\glassfish-4.1\glassfish\modules\javax.json.jar;C:\Program Files\glassfish-4.1\glassfish\modules\javax.mail.jar;C:\Program Files\glassfish-4.1\glassfish\modules\javax.management.j2ee-api.jar;C:\Program Files\glassfish-4.1\glassfish\modules\javax.persistence.jar;C:\Program Files\glassfish-4.1\glassfish\modules\javax.resource-api.jar;C:\Program Files\glassfish-4.1\glassfish\modules\javax.security.auth.message-api.jar;C:\Program Files\glassfish-4.1\glassfish\modules\javax.security.jacc-api.jar;C:\Program Files\glassfish-4.1\glassfish\modules\javax.servlet-api.jar;C:\Program Files\glassfish-4.1\glassfish\modules\javax.servlet.jsp-api.jar;C:\Program Files\glassfish-4.1\glassfish\modules\javax.servlet.jsp.jar;C:\Program Files\glassfish-4.1\glassfish\modules\javax.servlet.jsp.jstl-api.jar;C:\Program Files\glassfish-4.1\glassfish\modules\javax.servlet.jsp.jstl.jar;C:\Program Files\glassfish-4.1\glassfish\modules\javax.transaction-api.jar;C:\Program Files\glassfish-4.1\glassfish\modules\javax.websocket-api.jar;C:\Program Files\glassfish-4.1\glassfish\modules\javax.ws.rs-api.jar;C:\Program Files\glassfish-4.1\glassfish\modules\javax.xml.registry-api.jar;C:\Program Files\glassfish-4.1\glassfish\modules\javax.xml.rpc-api.jar;C:\Program Files\glassfish-4.1\glassfish\modules\jaxb-osgi.jar;C:\Program Files\glassfish-4.1\glassfish\modules\webservices-osgi.jar;C:\Program Files\glassfish-4.1\glassfish\modules\weld-osgi-bundle.jar;C:\Program Files\glassfish-4.1\mq\lib\jaxm-api.jar" />
    <property name="has.custom.manifest" value="true" />
    <property name="libs.jstl.maven-pom" value="" />
    <property name="libs.restapi.maven-pom" value="" />
    <property name="libs.beans-binding.src" value="" />
    <property name="java.vm.specification.vendor" value="Oracle Corporation" />
    <property name="libs.DataBindingME-PIM.javadoc" value="C:\Program Files\NetBeans 8.0.2\mobility\modules\docs\netbeans_databindingme_pim-api.zip" />
    <property name="libs.swing-layout.src" value="C:\Program Files\NetBeans 8.0.2\platform\docs\swing-layout-1.0.4-src.zip" />
    <property name="org.openide.major.version" value="IDE/1" />
    <property name="java.vm.name" value="Java HotSpot(TM) 64-Bit Server VM" />
    <property name="do.display.browser.debug" value="true" />
    <property name="netbeans.user" value="C:\Users\eduar\AppData\Roaming\NetBeans\8.0.2" />
    <property name="javadoc.additionalparam" value="" />
    <property name="java.io.tmpdir" value="C:\Users\eduar\AppData\Local\Temp\" />
    <property name="java.vendor.url" value="http://java.oracle.com/" />
    <property name="endorsed.classpath.cmd.line.arg" value="-Xbootclasspath/p:&apos;C:\Users\eduar\Documents\NetBeansProjects\KoordinateFINAL\lib\javaee-endorsed-api-6.0\javax.annotation.jar;C:\Users\eduar\Documents\NetBeansProjects\KoordinateFINAL\lib\javaee-endorsed-api-6.0\jaxb-api-osgi.jar;C:\Users\eduar\Documents\NetBeansProjects\KoordinateFINAL\lib\javaee-endorsed-api-6.0\webservices-api-osgi.jar&apos;" />
    <property name="junit.available" value="true" />
    <property name="libraries.basename" value="nblibraries" />
    <property name="compile.jsps" value="false" />
    <property name="libs.jsp-compiler.src" value="" />
    <property name="deploy.ant.properties.file" value="C:\Users\eduar\AppData\Roaming\NetBeans\8.0.2\tomcat80.properties" />
    <property name="sun.boot.library.path" value="C:\Program Files\Java\jdk1.8.0_60\jre\bin" />
    <property name="have.sources" value="true" />
    <property name="debug.classpath" value="build/web/WEB-INF/classes:C:/Users/eduar/Documents/NetBeansProjects/KoordinateFINAL/lib/jsf20/javax.faces.jar:C:/Users/eduar/Documents/NetBeansProjects/KoordinateFINAL/lib/hibernate4-support/antlr-2.7.7.jar;C:/Users/eduar/Documents/NetBeansProjects/KoordinateFINAL/lib/hibernate4-support/c3p0-0.9.2.1.jar;C:/Users/eduar/Documents/NetBeansProjects/KoordinateFINAL/lib/hibernate4-support/hibernate-c3p0-4.3.1.Final.jar;C:/Users/eduar/Documents/NetBeansProjects/KoordinateFINAL/lib/hibernate4-support/mchange-commons-java-0.2.3.4.jar;C:/Users/eduar/Documents/NetBeansProjects/KoordinateFINAL/lib/hibernate4-support/dom4j-1.6.1.jar;C:/Users/eduar/Documents/NetBeansProjects/KoordinateFINAL/lib/hibernate4-support/ehcache-core-2.4.3.jar;C:/Users/eduar/Documents/NetBeansProjects/KoordinateFINAL/lib/hibernate4-support/hibernate-ehcache-4.3.1.Final.jar;C:/Users/eduar/Documents/NetBeansProjects/KoordinateFINAL/lib/hibernate4-support/hibernate-core-4.3.1.Final.jar;C:/Users/eduar/Documents/NetBeansProjects/KoordinateFINAL/lib/hibernate4-support/jboss-logging-3.1.3.GA.jar;C:/Users/eduar/Documents/NetBeansProjects/KoordinateFINAL/lib/hibernate4-support/hibernate-commons-annotations-4.0.4.Final.jar;C:/Users/eduar/Documents/NetBeansProjects/KoordinateFINAL/lib/hibernate4-support/hibernate-entitymanager-4.3.1.Final.jar;C:/Users/eduar/Documents/NetBeansProjects/KoordinateFINAL/lib/hibernate4-support/javassist-3.18.1-GA.jar;C:/Users/eduar/Documents/NetBeansProjects/KoordinateFINAL/lib/hibernate4-support/jboss-transaction-api_1.2_spec-1.0.0.Final.jar;C:/Users/eduar/Documents/NetBeansProjects/KoordinateFINAL/lib/hibernate4-support/slf4j-api-1.6.1.jar;C:/Users/eduar/Documents/NetBeansProjects/KoordinateFINAL/lib/hibernate4-support/slf4j-simple-1.6.1.jar:C:/Users/eduar/Documents/NetBeansProjects/KoordinateFINAL/lib/jpa2-persistence/hibernate-jpa-2.1-api-1.0.0.Final.jar:C:/Users/eduar/Documents/NetBeansProjects/KoordinateFINAL/lib/PostgreSQLDriver/postgresql-9.2-1002.jdbc4.jar" />
    <property name="war.name" value="KoordinateFINAL.war" />
    <property name="javadoc.private" value="false" />
    <property name="test.src.dir" value="test" />
    <property name="libs.jsf20.classpath" value="C:/Users/eduar/Documents/NetBeansProjects/KoordinateFINAL/lib/jsf20/javax.faces.jar" />
    <property name="ap.processors.internal" value="" />
    <property name="javadoc.encoding.used" value="UTF-8" />
    <property name="libs.DataBindingME-SVG.src" value="C:\Program Files\NetBeans 8.0.2\mobility\sources\netbeans_databindingme_svg-src.zip" />
    <property name="libs.spring-framework400.maven-pom" value="" />
    <property name="java.runtime.name" value="Java(TM) SE Runtime Environment" />
    <property name="ant.project.name" value="KoordinateFINAL" />
    <property name="netbeans.hash.code" value="unique=NB_CND_EXTIDE_GFMOD_GROOVY_JAVA_JC_MOB_PHP_TOMCAT_WEBCOMMON_WEBEE079d6da73-3d8a-4e9a-9984-ac494801f744_2f079cac-e904-4384-a01c-5d5676f59907" />
    <property name="netbeans.default_userdir_root" value="C:\Users\eduar\AppData\Roaming\NetBeans" />
    <property name="libs.jsp-compilation-syscp.maven-pom" value="" />
    <property name="sun.cpu.isalist" value="amd64" />
    <property name="libs.PostgreSQLDriver.displayName" value="Driver JDBC do PostgreSQL" />
    <property name="libs.spring-framework400.javadoc" value="" />
    <property name="libs.CopyLibs.javadoc" value="" />
    <property name="j2ee.server.domain" value="C:/Users/eduar/AppData/Roaming/NetBeans/8.0.2/apache-tomcat-8.0.15.0_base" />
    <property name="org.openide.specification.version" value="6.2" />
    <property name="j2ee.server.home" value="C:/Program Files/Apache Software Foundation/Apache Tomcat 8.0.15" />
    <property name="libs.DataBindingME-PIM.classpath" value="C:\Program Files\NetBeans 8.0.2\mobility\modules\ext\netbeans_databindingme_pim.jar" />
    <property name="user.home" value="C:\Users\eduar" />
    <property name="annotation.processing.processors.list" value="" />
    <property name="libs.primefaces.maven-pom" value="" />
    <property name="debug-args-line" value="-Xdebug" />
    <property name="libs.javaee-api-6.0.maven-pom" value="" />
    <property name="libs.JWSAntTasks.src" value="" />
    <property name="libs.CopyLibs.maven-pom" value="" />
    <property name="libs.absolutelayout.javadoc" value="" />
    <property name="libs.spring-framework300.javadoc" value="" />
    <property name="java.specification.name" value="Java Platform API Specification" />
    <property name="no.dist.ear.dir" value="true" />
    <property name="libs.CopyLibs.prop-version" value="2.0" />
    <property name="libraries.dir" value="C:/Users/eduar/Documents/NetBeansProjects/KoordinateFINAL/lib" />
    <property name="java.specification.vendor" value="Oracle Corporation" />
    <property name="libs.javac-api.classpath" value="C:\Program Files\NetBeans 8.0.2\java\modules\ext\nb-javac-api.jar" />
    <property name="java.version" value="1.8.0_60" />
    <property name="javadoc.version" value="false" />
    <property name="run.jvmargs.ide" value="" />
    <property name="libs.MySQLDriver.javadoc" value="" />
    <property name="org.openide.version" value="deprecated" />
    <property name="source.encoding" value="UTF-8" />
    <property name="ap.cmd.line.internal" value="" />
    <property name="libs.eclipselinkmodelgen.maven-pom" value="" />
    <property name="libs.jsp-compilation-syscp.javadoc" value="" />
    <property name="libs.junit.maven-pom" value="" />
    <property name="libs.javaee-endorsed-api-7.0.classpath" value="C:\Program Files\NetBeans 8.0.2\enterprise\modules\ext\javaee7-endorsed\javax.annotation-api.jar;C:\Program Files\NetBeans 8.0.2\enterprise\modules\ext\javaee7-endorsed\javax.xml.soap-api.jar;C:\Program Files\NetBeans 8.0.2\enterprise\modules\ext\javaee7-endorsed\jaxb-api-osgi.jar;C:\Program Files\NetBeans 8.0.2\enterprise\modules\ext\javaee7-endorsed\jaxws-api.jar;C:\Program Files\NetBeans 8.0.2\enterprise\modules\ext\javaee7-endorsed\jsr181-api.jar" />
    <property name="libs.eclipselinkmodelgen.javadoc" value="" />
    <property name="libs.metro.javadoc" value="C:\Program Files\NetBeans 8.0.2\enterprise\docs\metro-1.4-doc.zip" />
    <property name="libs.struts.maven-pom" value="" />
    <property name="netbeans.home+have.tests" value="true" />
    <property name="libs.testng.maven-pom" value="" />
    <property name="libs.jaxb.src" value="" />
    <property name="libs.jaxb.classpath" value="C:\Program Files\NetBeans 8.0.2\ide\modules\ext\jaxb\jaxb-impl.jar;C:\Program Files\NetBeans 8.0.2\ide\modules\ext\jaxb\jaxb-xjc.jar;C:\Program Files\NetBeans 8.0.2\ide\modules\ext\jaxb\jaxb1-impl.jar;C:\Program Files\NetBeans 8.0.2\ide\modules\ext\jaxb\activation.jar;C:\Program Files\NetBeans 8.0.2\ide\modules\ext\jaxb\api\jaxb-api.jar;C:\Program Files\NetBeans 8.0.2\ide\modules\ext\jaxb\api\jsr173_1.0_api.jar" />
    <property name="dist.javadoc.dir" value="dist/javadoc" />
    <property name="libs.j2me_common_ant.classpath" value="C:\Program Files\NetBeans 8.0.2\mobility\modules\org-netbeans-modules-j2me-common-ant.jar;C:\Program Files\NetBeans 8.0.2\java\modules\org-netbeans-modules-classfile.jar" />
    <property name="libs.spring-webmvc3.0.classpath" value="C:\Program Files\NetBeans 8.0.2\java\modules\ext\spring-3.0\spring-webmvc-3.2.7.RELEASE.jar" />
    <property name="libs.swing-layout.classpath" value="C:\Program Files\NetBeans 8.0.2\platform\modules\ext\swing-layout-1.0.4.jar" />
    <property name="jspc.dtds" value="/resources/dtds/" />
    <property name="libs.javaee-web-api-7.0.maven-pom" value="" />
    <property name="libs.restlib.src" value="" />
    <property name="build.generated.dir" value="build/generated" />
    <property name="javac.source" value="1.8" />
    <property name="line.separator" value="&#xd;&#xa;" />
    <property name="java.specification.version" value="1.8" />
    <property name="libraries.path" value="C:\Users\eduar\Documents\NetBeansProjects\KoordinateFINAL\lib\nblibraries.properties" />
    <property name="java.vm.info" value="mixed mode" />
    <property name="libs.jaxws21.maven-pom" value="" />
    <property name="nb.junit.batch" value="true" />
    <property name="sun.boot.class.path" value="C:\Users\eduar\Documents\NetBeansProjects\KoordinateFINAL\lib\javaee-endorsed-api-6.0\javax.annotation.jar;C:\Users\eduar\Documents\NetBeansProjects\KoordinateFINAL\lib\javaee-endorsed-api-6.0\jaxb-api-osgi.jar;C:\Users\eduar\Documents\NetBeansProjects\KoordinateFINAL\lib\javaee-endorsed-api-6.0\webservices-api-osgi.jar;C:\Program Files\Java\jdk1.8.0_60\jre\lib\resources.jar;C:\Program Files\Java\jdk1.8.0_60\jre\lib\rt.jar;C:\Program Files\Java\jdk1.8.0_60\jre\lib\sunrsasign.jar;C:\Program Files\Java\jdk1.8.0_60\jre\lib\jsse.jar;C:\Program Files\Java\jdk1.8.0_60\jre\lib\jce.jar;C:\Program Files\Java\jdk1.8.0_60\jre\lib\charsets.jar;C:\Program Files\Java\jdk1.8.0_60\jre\lib\jfr.jar;C:\Program Files\Java\jdk1.8.0_60\jre\classes" />
    <property name="ant.file.type.KoordinateFINAL-impl" value="file" />
    <property name="javac.target" value="1.8" />
    <property name="libs.javaee-endorsed-api-6.0.displayName" value="Biblioteca Java EE 6 Endossada para API" />
    <property name="build.test.classes.dir" value="build/test/classes" />
    <property name="src.dir" value="src/java" />
    <property name="annotation.processing.enabled" value="true" />
    <property name="libs.jpa2-persistence.src" value="" />
    <property name="sun.awt.keepWorkingSetOnMinimize" value="true" />
    <property name="libs.jsf20.src" value="" />
    <property name="libs.jpa2-persistence.displayName" value="Persistence JPA2.1" />
    <property name="libs.jpa20-persistence.src" value="" />
    <property name="libs.jsf12.src" value="" />
    <property name="libs.DataBindingME-SVG.maven-pom" value="" />
    <property name="j2ee.platform" value="1.7-web" />
    <property name="libs.JAVADB_DRIVER_LABEL.maven-pom" value="" />
    <property name="libs.junit.prop-maven-dependencies" value="junit:junit:3.8.2:jar" />
    <property name="libs.struts.javadoc" value="C:\Program Files\NetBeans 8.0.2\enterprise\docs\struts-1.3.10-javadoc.zip" />
    <property name="ignore.failing.tests" value="true" />
    <property name="libs.Comet-GlassFish-v3.classpath" value="" />
    <property name="web.docbase.dir" value="web" />
    <property name="libs.javaee-web-api-7.0.src" value="" />
    <property name="libs.primefaces.src" value="" />
    <property name="dist.dir" value="dist" />
    <property name="libs.groovy-all.javadoc" value="" />
    <property name="testng.debug.mode" value="" />
    <property name="javac.fork" value="false" />
    <property name="libs.groovy-all.classpath" value="C:\Program Files\NetBeans 8.0.2\groovy\modules\ext\groovy-all.jar" />
    <property name="java.awt.printerjob" value="sun.awt.windows.WPrinterJob" />
    <property name="default.javac.source" value="1.8" />
    <property name="debug-transport-by-os" value="dt_shmem" />
    <property name="sun.jnu.encoding" value="Cp1252" />
    <property name="libs.MySQLDriver.src" value="" />
    <property name="build.test.results.dir" value="build/test/results" />
    <property name="java.runtime.version" value="1.8.0_60-b27" />
    <property name="default.javac.target" value="1.8" />
    <property name="libs.junit_4.classpath" value="C:/Users/eduar/Documents/NetBeansProjects/KoordinateFINAL/lib/junit_4/junit-4.10.jar" />
    <property name="user.timezone" value="" />
    <property name="nb.junit.single" value="false" />
    <property name="libs.junit_4.displayName" value="JUnit 4.10" />
    <property name="libs.javaee-endorsed-api-6.0.maven-pom" value="" />
    <property name="libs.JAVADB_DRIVER_LABEL.javadoc" value="" />
    <property name="netbeans.dirs" value="C:\Program Files\NetBeans 8.0.2\nb;C:\Program Files\NetBeans 8.0.2\ergonomics;C:\Program Files\NetBeans 8.0.2\ide;C:\Program Files\NetBeans 8.0.2\extide;C:\Program Files\NetBeans 8.0.2\java;C:\Program Files\NetBeans 8.0.2\apisupport;C:\Program Files\NetBeans 8.0.2\webcommon;C:\Program Files\NetBeans 8.0.2\websvccommon;C:\Program Files\NetBeans 8.0.2\enterprise;C:\Program Files\NetBeans 8.0.2\mobility;C:\Program Files\NetBeans 8.0.2\profiler;C:\Program Files\NetBeans 8.0.2\python;C:\Program Files\NetBeans 8.0.2\php;C:\Program Files\NetBeans 8.0.2\identity;C:\Program Files\NetBeans 8.0.2\harness;C:\Program Files\NetBeans 8.0.2\cnd;C:\Program Files\NetBeans 8.0.2\dlight;C:\Program Files\NetBeans 8.0.2\groovy;C:\Program Files\NetBeans 8.0.2\extra;C:\Program Files\NetBeans 8.0.2\javacard;C:\Program Files\NetBeans 8.0.2\javafx" />
    <property name="libs.jsf20.javadoc" value="C:/Users/eduar/Documents/NetBeansProjects/KoordinateFINAL/lib/jsf20/javaee-doc-api.jar" />
    <property name="libs.jstl.javadoc" value="C:\Program Files\NetBeans 8.0.2\enterprise\docs\javaee-doc-api.jar" />
    <property name="java.ext.dirs" value="C:\Program Files\Java\jdk1.8.0_60\jre\lib\ext;C:\WINDOWS\Sun\Java\lib\ext" />
    <property name="libs.metro.src" value="" />
    <property name="endorsed.classpath" value="C:/Users/eduar/Documents/NetBeansProjects/KoordinateFINAL/lib/javaee-endorsed-api-6.0/javax.annotation.jar;C:/Users/eduar/Documents/NetBeansProjects/KoordinateFINAL/lib/javaee-endorsed-api-6.0/jaxb-api-osgi.jar;C:/Users/eduar/Documents/NetBeansProjects/KoordinateFINAL/lib/javaee-endorsed-api-6.0/webservices-api-osgi.jar" />
    <property name="libs.jsf20.displayName" value="JSF 2.2" />
    <property name="libs.absolutelayout.classpath" value="C:\Program Files\NetBeans 8.0.2\java\modules\ext\AbsoluteLayout.jar" />
    <property name="excludes" value="" />
    <property name="libs.metro.classpath" value="C:\Program Files\NetBeans 8.0.2\ide\modules\ext\jaxb\activation.jar;C:\Program Files\NetBeans 8.0.2\enterprise\modules\ext\metro\webservices-api.jar;C:\Program Files\NetBeans 8.0.2\enterprise\modules\ext\metro\webservices-extra-api.jar;C:\Program Files\NetBeans 8.0.2\enterprise\modules\ext\metro\webservices-extra.jar;C:\Program Files\NetBeans 8.0.2\enterprise\modules\ext\metro\webservices-rt.jar;C:\Program Files\NetBeans 8.0.2\enterprise\modules\ext\metro\webservices-tools.jar" />
    <property name="libs.restlib.maven-pom" value="" />
    <property name="libs.PostgreSQLDriver.prop-maven-dependencies" value="postgresql:postgresql:9.2-1002.jdbc4:jar" />
    <property name="libs.jpa2-persistence.javadoc" value="C:/Users/eduar/Documents/NetBeansProjects/KoordinateFINAL/lib/jpa2-persistence/javax.persistence-2.1.0-doc.zip" />
    <property name="libs.DataBindingME.javadoc" value="C:\Program Files\NetBeans 8.0.2\mobility\modules\docs\netbeans_databindingme-api.zip" />
    <property name="apple.laf.useScreenMenuBar" value="true" />
    <property name="java.class.path" value="C:\Users\eduar\Documents\NetBeansProjects\KoordinateFINAL\lib\jsf20\javax.faces.jar;C:\Users\eduar\Documents\NetBeansProjects\KoordinateFINAL\lib\hibernate4-support\antlr-2.7.7.jar;C:\Users\eduar\Documents\NetBeansProjects\KoordinateFINAL\lib\hibernate4-support\c3p0-0.9.2.1.jar;C:\Users\eduar\Documents\NetBeansProjects\KoordinateFINAL\lib\hibernate4-support\hibernate-c3p0-4.3.1.Final.jar;C:\Users\eduar\Documents\NetBeansProjects\KoordinateFINAL\lib\hibernate4-support\mchange-commons-java-0.2.3.4.jar;C:\Users\eduar\Documents\NetBeansProjects\KoordinateFINAL\lib\hibernate4-support\dom4j-1.6.1.jar;C:\Users\eduar\Documents\NetBeansProjects\KoordinateFINAL\lib\hibernate4-support\ehcache-core-2.4.3.jar;C:\Users\eduar\Documents\NetBeansProjects\KoordinateFINAL\lib\hibernate4-support\hibernate-ehcache-4.3.1.Final.jar;C:\Users\eduar\Documents\NetBeansProjects\KoordinateFINAL\lib\hibernate4-support\hibernate-core-4.3.1.Final.jar;C:\Users\eduar\Documents\NetBeansProjects\KoordinateFINAL\lib\hibernate4-support\jboss-logging-3.1.3.GA.jar;C:\Users\eduar\Documents\NetBeansProjects\KoordinateFINAL\lib\hibernate4-support\hibernate-commons-annotations-4.0.4.Final.jar;C:\Users\eduar\Documents\NetBeansProjects\KoordinateFINAL\lib\hibernate4-support\hibernate-entitymanager-4.3.1.Final.jar;C:\Users\eduar\Documents\NetBeansProjects\KoordinateFINAL\lib\hibernate4-support\javassist-3.18.1-GA.jar;C:\Users\eduar\Documents\NetBeansProjects\KoordinateFINAL\lib\hibernate4-support\jboss-transaction-api_1.2_spec-1.0.0.Final.jar;C:\Users\eduar\Documents\NetBeansProjects\KoordinateFINAL\lib\hibernate4-support\slf4j-api-1.6.1.jar;C:\Users\eduar\Documents\NetBeansProjects\KoordinateFINAL\lib\hibernate4-support\slf4j-simple-1.6.1.jar;C:\Users\eduar\Documents\NetBeansProjects\KoordinateFINAL\lib\jpa2-persistence\hibernate-jpa-2.1-api-1.0.0.Final.jar;C:\Users\eduar\Documents\NetBeansProjects\KoordinateFINAL\lib\PostgreSQLDriver\postgresql-9.2-1002.jdbc4.jar;C:\Users\eduar\Documents\NetBeansProjects\KoordinateFINAL\build\web\WEB-INF\classes;C:\Users\eduar\Documents\NetBeansProjects\KoordinateFINAL\lib\junit_4\junit-4.10.jar;C:\Users\eduar\Documents\NetBeansProjects\KoordinateFINAL\build\test\classes;C:\Program Files\Apache Software Foundation\Apache Tomcat 8.0.15\lib\annotations-api.jar;C:\Program Files\Apache Software Foundation\Apache Tomcat 8.0.15\lib\catalina-ant.jar;C:\Program Files\Apache Software Foundation\Apache Tomcat 8.0.15\lib\catalina-ha.jar;C:\Program Files\Apache Software Foundation\Apache Tomcat 8.0.15\lib\catalina-storeconfig.jar;C:\Program Files\Apache Software Foundation\Apache Tomcat 8.0.15\lib\catalina-tribes.jar;C:\Program Files\Apache Software Foundation\Apache Tomcat 8.0.15\lib\catalina.jar;C:\Program Files\Apache Software Foundation\Apache Tomcat 8.0.15\lib\ecj-4.4.jar;C:\Program Files\Apache Software Foundation\Apache Tomcat 8.0.15\lib\el-api.jar;C:\Program Files\Apache Software Foundation\Apache Tomcat 8.0.15\lib\jasper-el.jar;C:\Program Files\Apache Software Foundation\Apache Tomcat 8.0.15\lib\jasper.jar;C:\Program Files\Apache Software Foundation\Apache Tomcat 8.0.15\lib\jsp-api.jar;C:\Program Files\Apache Software Foundation\Apache Tomcat 8.0.15\lib\servlet-api.jar;C:\Program Files\Apache Software Foundation\Apache Tomcat 8.0.15\lib\tomcat-api.jar;C:\Program Files\Apache Software Foundation\Apache Tomcat 8.0.15\lib\tomcat-coyote.jar;C:\Program Files\Apache Software Foundation\Apache Tomcat 8.0.15\lib\tomcat-dbcp.jar;C:\Program Files\Apache Software Foundation\Apache Tomcat 8.0.15\lib\tomcat-i18n-es.jar;C:\Program Files\Apache Software Foundation\Apache Tomcat 8.0.15\lib\tomcat-i18n-fr.jar;C:\Program Files\Apache Software Foundation\Apache Tomcat 8.0.15\lib\tomcat-i18n-ja.jar;C:\Program Files\Apache Software Foundation\Apache Tomcat 8.0.15\lib\tomcat-jdbc.jar;C:\Program Files\Apache Software Foundation\Apache Tomcat 8.0.15\lib\tomcat-jni.jar;C:\Program Files\Apache Software Foundation\Apache Tomcat 8.0.15\lib\tomcat-spdy.jar;C:\Program Files\Apache Software Foundation\Apache Tomcat 8.0.15\lib\tomcat-util-scan.jar;C:\Program Files\Apache Software Foundation\Apache Tomcat 8.0.15\lib\tomcat-util.jar;C:\Program Files\Apache Software Foundation\Apache Tomcat 8.0.15\lib\tomcat-websocket.jar;C:\Program Files\Apache Software Foundation\Apache Tomcat 8.0.15\lib\websocket-api.jar;C:\Program Files\NetBeans 8.0.2\extide\ant\lib\ant-launcher.jar;C:\Program Files\NetBeans 8.0.2\extide\ant\lib\ant.jar;C:\Program Files\NetBeans 8.0.2\extide\ant\lib\ant-junit.jar;C:\Program Files\NetBeans 8.0.2\extide\ant\lib\ant-junit4.jar" />
    <property name="libs.absolutelayout.src" value="" />
    <property name="libs.jpa20-persistence.classpath" value="C:\Program Files\NetBeans 8.0.2\java\modules\ext\eclipselink\javax.persistence_2.1.0.v201304241213.jar" />
    <property name="j2ee.server.type" value="Tomcat" />
    <property name="os.version" value="10.0" />
    <property name="libs.EclipseLink-GlassFish-v3.javadoc" value="C:\Program Files\NetBeans 8.0.2\enterprise\docs\javaee-doc-api.jar" />
    <property name="libs.javaee-api-7.0.maven-pom" value="" />
    <property name="sun.awt.enableExtraMouseButtons" value="true" />
    <property name="sun.desktop" value="windows" />
    <property name="libs.hibernate4-persistence.src" value="" />
    <property name="libs.hibernate4-support.maven-pom" value="" />
    <property name="libs.Comet-GlassFish-v3.src" value="" />
    <property name="libs.restlib.javadoc" value="" />
    <property name="war.content.additional" value="" />
    <property name="libs.JAXB-ENDORSED.classpath" value="C:\Program Files\NetBeans 8.0.2\ide\modules\ext\jaxb\api\jaxb-api.jar" />
    <property name="nb.internal.action.name" value="test" />
    <property name="j2ee.platform.embeddableejb.classpath" value="" />
    <property name="forceRedeploy" value="false" />
    <property name="libs.eclipselink.classpath" value="C:\Program Files\NetBeans 8.0.2\java\modules\ext\eclipselink\eclipselink.jar;C:\Program Files\NetBeans 8.0.2\java\modules\ext\eclipselink\javax.persistence_2.1.0.v201304241213.jar;C:\Program Files\NetBeans 8.0.2\java\modules\ext\eclipselink\org.eclipse.persistence.jpa.jpql_2.5.2.v20140319-9ad6abd.jar" />
    <property name="libs.javaee-api-7.0.javadoc" value="C:\Program Files\NetBeans 8.0.2\enterprise\docs\javaee-doc-api.jar" />
    <property name="libs.beans-binding.javadoc" value="C:\Program Files\NetBeans 8.0.2\java\docs\beansbinding-1.2.1-doc.zip" />
    <property name="java.awt.graphicsenv" value="sun.awt.Win32GraphicsEnvironment" />
    <property name="libs.junit.displayName" value="JUnit 3.8.2" />
    <property name="java.vm.vendor" value="Oracle Corporation" />
    <property name="libs.CopyLibs.classpath" value="C:/Users/eduar/Documents/NetBeansProjects/KoordinateFINAL/lib/CopyLibs/org-netbeans-modules-java-j2seproject-copylibstask.jar" />
    <property name="libs.jpa2-persistence.prop-maven-dependencies" value="org.hibernate:hibernate-jpa-2.1-api-1.0.0.Final:jar" />
    <property name="libs.spring-framework300.classpath" value="C:\Program Files\NetBeans 8.0.2\ide\modules\org-apache-commons-logging.jar;C:\Program Files\NetBeans 8.0.2\java\modules\ext\cglib-2.2.jar;C:\Program Files\NetBeans 8.0.2\java\modules\ext\spring-3.0\spring-aop-3.2.7.RELEASE.jar;C:\Program Files\NetBeans 8.0.2\java\modules\ext\spring-3.0\spring-aspects-3.2.7.RELEASE.jar;C:\Program Files\NetBeans 8.0.2\java\modules\ext\spring-3.0\spring-beans-3.2.7.RELEASE.jar;C:\Program Files\NetBeans 8.0.2\java\modules\ext\spring-3.0\spring-build-src-3.2.7.RELEASE.jar;C:\Program Files\NetBeans 8.0.2\java\modules\ext\spring-3.0\spring-context-3.2.7.RELEASE.jar;C:\Program Files\NetBeans 8.0.2\java\modules\ext\spring-3.0\spring-context-support-3.2.7.RELEASE.jar;C:\Program Files\NetBeans 8.0.2\java\modules\ext\spring-3.0\spring-core-3.2.7.RELEASE.jar;C:\Program Files\NetBeans 8.0.2\java\modules\ext\spring-3.0\spring-expression-3.2.7.RELEASE.jar;C:\Program Files\NetBeans 8.0.2\java\modules\ext\spring-3.0\spring-framework-bom-3.2.7.RELEASE.jar;C:\Program Files\NetBeans 8.0.2\java\modules\ext\spring-3.0\spring-instrument-3.2.7.RELEASE.jar;C:\Program Files\NetBeans 8.0.2\java\modules\ext\spring-3.0\spring-instrument-tomcat-3.2.7.RELEASE.jar;C:\Program Files\NetBeans 8.0.2\java\modules\ext\spring-3.0\spring-jdbc-3.2.7.RELEASE.jar;C:\Program Files\NetBeans 8.0.2\java\modules\ext\spring-3.0\spring-jms-3.2.7.RELEASE.jar;C:\Program Files\NetBeans 8.0.2\java\modules\ext\spring-3.0\spring-orm-3.2.7.RELEASE.jar;C:\Program Files\NetBeans 8.0.2\java\modules\ext\spring-3.0\spring-oxm-3.2.7.RELEASE.jar;C:\Program Files\NetBeans 8.0.2\java\modules\ext\spring-3.0\spring-struts-3.2.7.RELEASE.jar;C:\Program Files\NetBeans 8.0.2\java\modules\ext\spring-3.0\spring-test-3.2.7.RELEASE.jar;C:\Program Files\NetBeans 8.0.2\java\modules\ext\spring-3.0\spring-tx-3.2.7.RELEASE.jar;C:\Program Files\NetBeans 8.0.2\java\modules\ext\spring-3.0\spring-web-3.2.7.RELEASE.jar;C:\Program Files\NetBeans 8.0.2\java\modules\ext\spring-3.0\spring-webmvc-3.2.7.RELEASE.jar;C:\Program Files\NetBeans 8.0.2\java\modules\ext\spring-3.0\spring-webmvc-portlet-3.2.7.RELEASE.jar" />
    <property name="libs.jsp-compiler.maven-pom" value="" />
    <property name="libs.hibernate4-persistence.classpath" value="C:\Program Files\NetBeans 8.0.2\java\modules\ext\hibernate4\antlr-2.7.7.jar;C:\Program Files\NetBeans 8.0.2\java\modules\ext\hibernate4\c3p0-0.9.2.1.jar;C:\Program Files\NetBeans 8.0.2\java\modules\ext\hibernate4\hibernate-c3p0-4.3.1.Final.jar;C:\Program Files\NetBeans 8.0.2\java\modules\ext\hibernate4\mchange-commons-java-0.2.3.4.jar;C:\Program Files\NetBeans 8.0.2\java\modules\ext\hibernate4\dom4j-1.6.1.jar;C:\Program Files\NetBeans 8.0.2\java\modules\ext\hibernate4\ehcache-core-2.4.3.jar;C:\Program Files\NetBeans 8.0.2\java\modules\ext\hibernate4\hibernate-ehcache-4.3.1.Final.jar;C:\Program Files\NetBeans 8.0.2\java\modules\ext\hibernate4\hibernate-core-4.3.1.Final.jar;C:\Program Files\NetBeans 8.0.2\java\modules\ext\hibernate4\jboss-logging-3.1.3.GA.jar;C:\Program Files\NetBeans 8.0.2\java\modules\ext\hibernate4\hibernate-commons-annotations-4.0.4.Final.jar;C:\Program Files\NetBeans 8.0.2\java\modules\ext\hibernate4\hibernate-entitymanager-4.3.1.Final.jar;C:\Program Files\NetBeans 8.0.2\java\modules\ext\hibernate4\javassist-3.18.1-GA.jar;C:\Program Files\NetBeans 8.0.2\java\modules\ext\hibernate4\jboss-transaction-api_1.2_spec-1.0.0.Final.jar;C:\Program Files\NetBeans 8.0.2\java\modules\ext\hibernate4\slf4j-api-1.6.1.jar;C:\Program Files\NetBeans 8.0.2\java\modules\ext\hibernate4\slf4j-simple-1.6.1.jar;C:\Program Files\NetBeans 8.0.2\java\modules\ext\hibernate4\hibernate-jpa-2.1-api-1.0.0.Final.jar" />
    <property name="libs.JAXB-ENDORSED.src" value="" />
    <property name="dist.archive.excludes" value="" />
    <property name="libs.DataBindingME-PIM.src" value="C:\Program Files\NetBeans 8.0.2\mobility\sources\netbeans_databindingme_pim-src.zip" />
    <property name="libs.testng.javadoc" value="C:\Program Files\NetBeans 8.0.2\platform\docs\testng-6.8.1-javadoc.zip" />
    <property name="libs.PostgreSQLDriver.classpath" value="C:/Users/eduar/Documents/NetBeansProjects/KoordinateFINAL/lib/PostgreSQLDriver/postgresql-9.2-1002.jdbc4.jar" />
    <property name="user.script" value="" />
    <property name="libs.jsf12.maven-pom" value="" />
    <property name="libs.hibernate4-persistencemodelgen.classpath" value="C:\Program Files\NetBeans 8.0.2\java\modules\ext\hibernate4\hibernate-jpamodelgen-4.3.1.Final.jar" />
    <property name="libs.junit.src" value="" />
    <property name="annotation.processing.source.output" value="build/generated-sources/ap-source-output" />
    <property name="libs.CopyLibs.displayName" value="Tarefa CopyLibs" />
    <property name="libs.CopyLibs.src" value="" />
    <property name="build.dir" value="build" />
    <property name="libs.jsp-compilation.classpath" value="C:\Program Files\NetBeans 8.0.2\extide\ant\lib\ant.jar;C:\Program Files\NetBeans 8.0.2\enterprise\modules\ext\servlet3.1-jsp2.3-api.jar;C:\Program Files\NetBeans 8.0.2\enterprise\modules\ext\glassfish-jspparser-4.0.jar;C:\Program Files\NetBeans 8.0.2\enterprise\modules\ext\jsf-2_2\javax.faces.jar;C:\Program Files\NetBeans 8.0.2\enterprise\modules\ext\jstl-api.jar;C:\Program Files\NetBeans 8.0.2\extide\ant\lib\ant-launcher.jar" />
    <property name="ant.version" value="Apache Ant(TM) version 1.9.4 compiled on April 29 2014" />
    <property name="build.classes.excludes" value="**/*.java,**/*.form" />
    <property name="file.encoding" value="Cp1252" />
    <property name="javadoc.nonavbar" value="false" />
    <property name="jdkBug6558476" value="false" />
    <property name="libs.spring-webmvc4.0.classpath" value="C:\Program Files\NetBeans 8.0.2\java\modules\ext\spring-4\spring-webmvc-4.0.1.RELEASE.jar" />
    <property name="platform.active" value="default_platform" />
    <property name="awt.toolkit" value="sun.awt.windows.WToolkit" />
    <property name="war.ear.name" value="KoordinateFINAL.war" />
    <property name="libs.javaee-web-api-7.0.javadoc" value="C:\Program Files\NetBeans 8.0.2\enterprise\docs\javaee-doc-api.jar" />
  </properties>
  <testcase classname="model.ComponenteCurricularTest" name="testConsultar_int" time="1.242" />
  <testcase classname="model.ComponenteCurricularTest" name="testAlterar" time="0.019" />
  <testcase classname="model.ComponenteCurricularTest" name="testConsultar" time="0.012" />
  <testcase classname="model.ComponenteCurricularTest" name="testExcluir" time="0.004" />
  <testcase classname="model.ComponenteCurricularTest" name="testSalvar" time="0.01" />
  <system-out><![CDATA[Testando método Consultar
Hibernate: 
    select
        nextval ('comp_seq_no_banco')
Hibernate: 
    insert 
    into
        public.componente_curricular
        (cargahoraria, cod, creditos, isativo, link, nome, id) 
    values
        (?, ?, ?, ?, ?, ?, ?)
Hibernate: 
    select
        componente0_.id as id1_0_,
        componente0_.cargahoraria as cargahor2_0_,
        componente0_.cod as cod3_0_,
        componente0_.creditos as creditos4_0_,
        componente0_.isativo as isativo5_0_,
        componente0_.link as link6_0_,
        componente0_.nome as nome7_0_ 
    from
        public.componente_curricular componente0_ 
    where
        componente0_.id=?
Hibernate: 
    delete 
    from
        public.componente_curricular 
    where
        id=?
Testando método Alterar
Hibernate: 
    select
        nextval ('comp_seq_no_banco')
Hibernate: 
    insert 
    into
        public.componente_curricular
        (cargahoraria, cod, creditos, isativo, link, nome, id) 
    values
        (?, ?, ?, ?, ?, ?, ?)
Hibernate: 
    select
        componente0_.id as id1_0_,
        componente0_.cargahoraria as cargahor2_0_,
        componente0_.cod as cod3_0_,
        componente0_.creditos as creditos4_0_,
        componente0_.isativo as isativo5_0_,
        componente0_.link as link6_0_,
        componente0_.nome as nome7_0_ 
    from
        public.componente_curricular componente0_ 
    where
        componente0_.id=?
Hibernate: 
    select
        componente0_.id as id1_0_,
        componente0_.cargahoraria as cargahor2_0_,
        componente0_.cod as cod3_0_,
        componente0_.creditos as creditos4_0_,
        componente0_.isativo as isativo5_0_,
        componente0_.link as link6_0_,
        componente0_.nome as nome7_0_ 
    from
        public.componente_curricular componente0_ 
    where
        componente0_.id=?
Hibernate: 
    select
        componente0_.id as id1_0_0_,
        componente0_.cargahoraria as cargahor2_0_0_,
        componente0_.cod as cod3_0_0_,
        componente0_.creditos as creditos4_0_0_,
        componente0_.isativo as isativo5_0_0_,
        componente0_.link as link6_0_0_,
        componente0_.nome as nome7_0_0_ 
    from
        public.componente_curricular componente0_ 
    where
        componente0_.id=?
Hibernate: 
    update
        public.componente_curricular 
    set
        cargahoraria=?,
        cod=?,
        creditos=?,
        isativo=?,
        link=?,
        nome=? 
    where
        id=?
Hibernate: 
    delete 
    from
        public.componente_curricular 
    where
        id=?
Testando método Consultar
Hibernate: 
    select
        count(*) as y0_ 
    from
        public.componente_curricular this_
Hibernate: 
    select
        componente0_.id as id1_0_,
        componente0_.cargahoraria as cargahor2_0_,
        componente0_.cod as cod3_0_,
        componente0_.creditos as creditos4_0_,
        componente0_.isativo as isativo5_0_,
        componente0_.link as link6_0_,
        componente0_.nome as nome7_0_ 
    from
        public.componente_curricular componente0_
Testando método excluir
Hibernate: 
    select
        nextval ('comp_seq_no_banco')
Hibernate: 
    insert 
    into
        public.componente_curricular
        (cargahoraria, cod, creditos, isativo, link, nome, id) 
    values
        (?, ?, ?, ?, ?, ?, ?)
Hibernate: 
    delete 
    from
        public.componente_curricular 
    where
        id=?
Testando método Salvar
Hibernate: 
    select
        nextval ('comp_seq_no_banco')
Hibernate: 
    insert 
    into
        public.componente_curricular
        (cargahoraria, cod, creditos, isativo, link, nome, id) 
    values
        (?, ?, ?, ?, ?, ?, ?)
Hibernate: 
    delete 
    from
        public.componente_curricular 
    where
        id=?
]]></system-out>
  <system-err><![CDATA[set 27, 2015 5:51:33 PM org.hibernate.annotations.common.reflection.java.JavaReflectionManager <clinit>
INFO: HCANN000001: Hibernate Commons Annotations {4.0.4.Final}
set 27, 2015 5:51:33 PM org.hibernate.Version logVersion
INFO: HHH000412: Hibernate Core {4.3.1.Final}
set 27, 2015 5:51:33 PM org.hibernate.cfg.Environment <clinit>
INFO: HHH000206: hibernate.properties not found
set 27, 2015 5:51:33 PM org.hibernate.cfg.Environment buildBytecodeProvider
INFO: HHH000021: Bytecode provider name : javassist
set 27, 2015 5:51:33 PM org.hibernate.cfg.Configuration configure
INFO: HHH000043: Configuring from resource: hibernate.cfg.xml
set 27, 2015 5:51:33 PM org.hibernate.cfg.Configuration getConfigurationInputStream
INFO: HHH000040: Configuration resource: hibernate.cfg.xml
set 27, 2015 5:51:33 PM org.hibernate.internal.util.xml.DTDEntityResolver resolveEntity
WARN: HHH000223: Recognized obsolete hibernate namespace http://hibernate.sourceforge.net/. Use namespace http://www.hibernate.org/dtd/ instead. Refer to Hibernate 3.6 Migration Guide!
set 27, 2015 5:51:33 PM org.hibernate.cfg.Configuration doConfigure
INFO: HHH000041: Configured SessionFactory: null
set 27, 2015 5:51:33 PM org.hibernate.engine.jdbc.connections.internal.DriverManagerConnectionProviderImpl configure
WARN: HHH000402: Using Hibernate built-in connection pool (not for production use!)
set 27, 2015 5:51:33 PM org.hibernate.engine.jdbc.connections.internal.DriverManagerConnectionProviderImpl buildCreator
INFO: HHH000401: using driver [org.postgresql.Driver] at URL [jdbc:postgresql://localhost:5432/Koordinate]
set 27, 2015 5:51:33 PM org.hibernate.engine.jdbc.connections.internal.DriverManagerConnectionProviderImpl buildCreator
INFO: HHH000046: Connection properties: {user=postgres, password=****}
set 27, 2015 5:51:33 PM org.hibernate.engine.jdbc.connections.internal.DriverManagerConnectionProviderImpl buildCreator
INFO: HHH000006: Autocommit mode: false
set 27, 2015 5:51:33 PM org.hibernate.engine.jdbc.connections.internal.DriverManagerConnectionProviderImpl configure
INFO: HHH000115: Hibernate connection pool size: 20 (min=1)
set 27, 2015 5:51:33 PM org.hibernate.dialect.Dialect <init>
INFO: HHH000400: Using dialect: org.hibernate.dialect.PostgreSQLDialect
set 27, 2015 5:51:33 PM org.hibernate.engine.jdbc.internal.LobCreatorBuilder useContextualLobCreation
INFO: HHH000424: Disabling contextual LOB creation as createClob() method threw error : java.lang.reflect.InvocationTargetException
set 27, 2015 5:51:34 PM org.hibernate.engine.transaction.internal.TransactionFactoryInitiator initiateService
INFO: HHH000399: Using default transaction strategy (direct JDBC transactions)
set 27, 2015 5:51:34 PM org.hibernate.hql.internal.ast.ASTQueryTranslatorFactory <init>
INFO: HHH000397: Using ASTQueryTranslatorFactory
set 27, 2015 5:51:34 PM org.hibernate.event.internal.DefaultDeleteEventListener deleteTransientEntity
INFO: HHH000114: Handling transient entity in delete processing
]]></system-err>
</testsuite>
